(kicad_sch (version 20211123) (generator eeschema)

  (uuid e63e39d7-6ac0-4ffd-8aa3-1841a4541b55)

  (paper "A4")

  (title_block
    (title "HiP Berlin Hardware Badge")
    (date "2023-06-08")
    (rev "0.8.10")
    (company "HiP Berlin, Badge Team")
    (comment 1 "Copyright © 2023, HiP Berlin")
    (comment 2 "Serving HiP 2023 conference visitors")
    (comment 3 "Pending quality assurance testing")
    (comment 4 "Warning, untested prototype!")
  )

  (lib_symbols
    (symbol "Mechanical:Fiducial" (in_bom yes) (on_board yes)
      (property "Reference" "FID" (id 0) (at 0 5.08 0)
        (effects (font (size 1.27 1.27)))
      )
      (property "Value" "Fiducial" (id 1) (at 0 3.175 0)
        (effects (font (size 1.27 1.27)))
      )
      (property "Footprint" "" (id 2) (at 0 0 0)
        (effects (font (size 1.27 1.27)) hide)
      )
      (property "Datasheet" "~" (id 3) (at 0 0 0)
        (effects (font (size 1.27 1.27)) hide)
      )
      (property "ki_keywords" "fiducial marker" (id 4) (at 0 0 0)
        (effects (font (size 1.27 1.27)) hide)
      )
      (property "ki_description" "Fiducial Marker" (id 5) (at 0 0 0)
        (effects (font (size 1.27 1.27)) hide)
      )
      (property "ki_fp_filters" "Fiducial*" (id 6) (at 0 0 0)
        (effects (font (size 1.27 1.27)) hide)
      )
      (symbol "Fiducial_0_1"
        (circle (center 0 0) (radius 1.27)
          (stroke (width 0.508) (type default) (color 0 0 0 0))
          (fill (type background))
        )
      )
    )
    (symbol "Mechanical:MountingHole" (pin_names (offset 1.016)) (in_bom yes) (on_board yes)
      (property "Reference" "H" (id 0) (at 0 5.08 0)
        (effects (font (size 1.27 1.27)))
      )
      (property "Value" "MountingHole" (id 1) (at 0 3.175 0)
        (effects (font (size 1.27 1.27)))
      )
      (property "Footprint" "" (id 2) (at 0 0 0)
        (effects (font (size 1.27 1.27)) hide)
      )
      (property "Datasheet" "~" (id 3) (at 0 0 0)
        (effects (font (size 1.27 1.27)) hide)
      )
      (property "ki_keywords" "mounting hole" (id 4) (at 0 0 0)
        (effects (font (size 1.27 1.27)) hide)
      )
      (property "ki_description" "Mounting Hole without connection" (id 5) (at 0 0 0)
        (effects (font (size 1.27 1.27)) hide)
      )
      (property "ki_fp_filters" "MountingHole*" (id 6) (at 0 0 0)
        (effects (font (size 1.27 1.27)) hide)
      )
      (symbol "MountingHole_0_1"
        (circle (center 0 0) (radius 1.27)
          (stroke (width 1.27) (type default) (color 0 0 0 0))
          (fill (type none))
        )
      )
    )
    (symbol "power:+3V3" (power) (pin_names (offset 0)) (in_bom yes) (on_board yes)
      (property "Reference" "#PWR" (id 0) (at 0 -3.81 0)
        (effects (font (size 1.27 1.27)) hide)
      )
      (property "Value" "+3V3" (id 1) (at 0 3.556 0)
        (effects (font (size 1.27 1.27)))
      )
      (property "Footprint" "" (id 2) (at 0 0 0)
        (effects (font (size 1.27 1.27)) hide)
      )
      (property "Datasheet" "" (id 3) (at 0 0 0)
        (effects (font (size 1.27 1.27)) hide)
      )
      (property "ki_keywords" "power-flag" (id 4) (at 0 0 0)
        (effects (font (size 1.27 1.27)) hide)
      )
      (property "ki_description" "Power symbol creates a global label with name \"+3V3\"" (id 5) (at 0 0 0)
        (effects (font (size 1.27 1.27)) hide)
      )
      (symbol "+3V3_0_1"
        (polyline
          (pts
            (xy -0.762 1.27)
            (xy 0 2.54)
          )
          (stroke (width 0) (type default) (color 0 0 0 0))
          (fill (type none))
        )
        (polyline
          (pts
            (xy 0 0)
            (xy 0 2.54)
          )
          (stroke (width 0) (type default) (color 0 0 0 0))
          (fill (type none))
        )
        (polyline
          (pts
            (xy 0 2.54)
            (xy 0.762 1.27)
          )
          (stroke (width 0) (type default) (color 0 0 0 0))
          (fill (type none))
        )
      )
      (symbol "+3V3_1_1"
        (pin power_in line (at 0 0 90) (length 0) hide
          (name "+3V3" (effects (font (size 1.27 1.27))))
          (number "1" (effects (font (size 1.27 1.27))))
        )
      )
    )
    (symbol "power:+5V" (power) (pin_names (offset 0)) (in_bom yes) (on_board yes)
      (property "Reference" "#PWR" (id 0) (at 0 -3.81 0)
        (effects (font (size 1.27 1.27)) hide)
      )
      (property "Value" "+5V" (id 1) (at 0 3.556 0)
        (effects (font (size 1.27 1.27)))
      )
      (property "Footprint" "" (id 2) (at 0 0 0)
        (effects (font (size 1.27 1.27)) hide)
      )
      (property "Datasheet" "" (id 3) (at 0 0 0)
        (effects (font (size 1.27 1.27)) hide)
      )
      (property "ki_keywords" "power-flag" (id 4) (at 0 0 0)
        (effects (font (size 1.27 1.27)) hide)
      )
      (property "ki_description" "Power symbol creates a global label with name \"+5V\"" (id 5) (at 0 0 0)
        (effects (font (size 1.27 1.27)) hide)
      )
      (symbol "+5V_0_1"
        (polyline
          (pts
            (xy -0.762 1.27)
            (xy 0 2.54)
          )
          (stroke (width 0) (type default) (color 0 0 0 0))
          (fill (type none))
        )
        (polyline
          (pts
            (xy 0 0)
            (xy 0 2.54)
          )
          (stroke (width 0) (type default) (color 0 0 0 0))
          (fill (type none))
        )
        (polyline
          (pts
            (xy 0 2.54)
            (xy 0.762 1.27)
          )
          (stroke (width 0) (type default) (color 0 0 0 0))
          (fill (type none))
        )
      )
      (symbol "+5V_1_1"
        (pin power_in line (at 0 0 90) (length 0) hide
          (name "+5V" (effects (font (size 1.27 1.27))))
          (number "1" (effects (font (size 1.27 1.27))))
        )
      )
    )
    (symbol "power:GND" (power) (pin_names (offset 0)) (in_bom yes) (on_board yes)
      (property "Reference" "#PWR" (id 0) (at 0 -6.35 0)
        (effects (font (size 1.27 1.27)) hide)
      )
      (property "Value" "GND" (id 1) (at 0 -3.81 0)
        (effects (font (size 1.27 1.27)))
      )
      (property "Footprint" "" (id 2) (at 0 0 0)
        (effects (font (size 1.27 1.27)) hide)
      )
      (property "Datasheet" "" (id 3) (at 0 0 0)
        (effects (font (size 1.27 1.27)) hide)
      )
      (property "ki_keywords" "power-flag" (id 4) (at 0 0 0)
        (effects (font (size 1.27 1.27)) hide)
      )
      (property "ki_description" "Power symbol creates a global label with name \"GND\" , ground" (id 5) (at 0 0 0)
        (effects (font (size 1.27 1.27)) hide)
      )
      (symbol "GND_0_1"
        (polyline
          (pts
            (xy 0 0)
            (xy 0 -1.27)
            (xy 1.27 -1.27)
            (xy 0 -2.54)
            (xy -1.27 -1.27)
            (xy 0 -1.27)
          )
          (stroke (width 0) (type default) (color 0 0 0 0))
          (fill (type none))
        )
      )
      (symbol "GND_1_1"
        (pin power_in line (at 0 0 270) (length 0) hide
          (name "GND" (effects (font (size 1.27 1.27))))
          (number "1" (effects (font (size 1.27 1.27))))
        )
      )
    )
    (symbol "power:PWR_FLAG" (power) (pin_numbers hide) (pin_names (offset 0) hide) (in_bom yes) (on_board yes)
      (property "Reference" "#FLG" (id 0) (at 0 1.905 0)
        (effects (font (size 1.27 1.27)) hide)
      )
      (property "Value" "PWR_FLAG" (id 1) (at 0 3.81 0)
        (effects (font (size 1.27 1.27)))
      )
      (property "Footprint" "" (id 2) (at 0 0 0)
        (effects (font (size 1.27 1.27)) hide)
      )
      (property "Datasheet" "~" (id 3) (at 0 0 0)
        (effects (font (size 1.27 1.27)) hide)
      )
      (property "ki_keywords" "power-flag" (id 4) (at 0 0 0)
        (effects (font (size 1.27 1.27)) hide)
      )
      (property "ki_description" "Special symbol for telling ERC where power comes from" (id 5) (at 0 0 0)
        (effects (font (size 1.27 1.27)) hide)
      )
      (symbol "PWR_FLAG_0_0"
        (pin power_out line (at 0 0 90) (length 0)
          (name "pwr" (effects (font (size 1.27 1.27))))
          (number "1" (effects (font (size 1.27 1.27))))
        )
      )
      (symbol "PWR_FLAG_0_1"
        (polyline
          (pts
            (xy 0 0)
            (xy 0 1.27)
            (xy -1.016 1.905)
            (xy 0 2.54)
            (xy 1.016 1.905)
            (xy 0 1.27)
          )
          (stroke (width 0) (type default) (color 0 0 0 0))
          (fill (type none))
        )
      )
    )
    (symbol "power:VCC" (power) (pin_names (offset 0)) (in_bom yes) (on_board yes)
      (property "Reference" "#PWR" (id 0) (at 0 -3.81 0)
        (effects (font (size 1.27 1.27)) hide)
      )
      (property "Value" "VCC" (id 1) (at 0 3.81 0)
        (effects (font (size 1.27 1.27)))
      )
      (property "Footprint" "" (id 2) (at 0 0 0)
        (effects (font (size 1.27 1.27)) hide)
      )
      (property "Datasheet" "" (id 3) (at 0 0 0)
        (effects (font (size 1.27 1.27)) hide)
      )
      (property "ki_keywords" "power-flag" (id 4) (at 0 0 0)
        (effects (font (size 1.27 1.27)) hide)
      )
      (property "ki_description" "Power symbol creates a global label with name \"VCC\"" (id 5) (at 0 0 0)
        (effects (font (size 1.27 1.27)) hide)
      )
      (symbol "VCC_0_1"
        (polyline
          (pts
            (xy -0.762 1.27)
            (xy 0 2.54)
          )
          (stroke (width 0) (type default) (color 0 0 0 0))
          (fill (type none))
        )
        (polyline
          (pts
            (xy 0 0)
            (xy 0 2.54)
          )
          (stroke (width 0) (type default) (color 0 0 0 0))
          (fill (type none))
        )
        (polyline
          (pts
            (xy 0 2.54)
            (xy 0.762 1.27)
          )
          (stroke (width 0) (type default) (color 0 0 0 0))
          (fill (type none))
        )
      )
      (symbol "VCC_1_1"
        (pin power_in line (at 0 0 90) (length 0) hide
          (name "VCC" (effects (font (size 1.27 1.27))))
          (number "1" (effects (font (size 1.27 1.27))))
        )
      )
    )
  )


  (wire (pts (xy 91.44 176.53) (xy 101.6 176.53))
    (stroke (width 0) (type default) (color 0 0 0 0))
    (uuid 28195b2b-bccc-4c1b-a233-532813d09f29)
  )
  (wire (pts (xy 134.62 176.53) (xy 144.78 176.53))
    (stroke (width 0) (type default) (color 0 0 0 0))
    (uuid 956c2cd5-c3a4-49da-8bce-9b670a48b1e3)
  )
  (wire (pts (xy 113.03 176.53) (xy 123.19 176.53))
    (stroke (width 0) (type default) (color 0 0 0 0))
    (uuid c54984fb-330d-4e96-bb74-cefc52895994)
  )

  (text "POWER" (at 55.245 123.825 0)
    (effects (font (size 5 5)) (justify left bottom))
    (uuid 21680358-1375-4a67-aff6-704bd9c97df0)
  )
  (text "CONTROL" (at 50.8 62.23 0)
    (effects (font (size 5 5)) (justify left bottom))
    (uuid 37322642-a9e8-4b7a-994e-382297571ca4)
  )
  (text "LIGHTS" (at 136.525 62.23 0)
    (effects (font (size 5 5)) (justify left bottom))
    (uuid 44a9ebd3-2b14-4b52-9219-5462d7610096)
  )
  (text "IN/OUT" (at 137.16 123.825 0)
    (effects (font (size 5 5)) (justify left bottom))
    (uuid c74dfc99-9655-4e31-a494-a2ff06eb0283)
  )
  (text "SERIAL" (at 217.805 62.23 0)
    (effects (font (size 5 5)) (justify left bottom))
    (uuid d60e912f-79e9-4f9f-aeb4-e906bb246b87)
  )

  (symbol (lib_id "Mechanical:MountingHole") (at 113.03 184.15 0) (unit 1)
    (in_bom yes) (on_board yes) (fields_autoplaced)
    (uuid 06808af2-7e1b-4538-be58-de3841b1fdf3)
    (property "Reference" "H2" (id 0) (at 115.57 182.8799 0)
      (effects (font (size 1.27 1.27)) (justify left))
    )
    (property "Value" "MountingHole" (id 1) (at 115.57 185.4199 0)
      (effects (font (size 1.27 1.27)) (justify left))
    )
    (property "Footprint" "MountingHole:MountingHole_3.2mm_M3" (id 2) (at 113.03 184.15 0)
      (effects (font (size 1.27 1.27)) hide)
    )
    (property "Datasheet" "~" (id 3) (at 113.03 184.15 0)
      (effects (font (size 1.27 1.27)) hide)
    )
  )

  (symbol (lib_id "power:GND") (at 158.75 171.45 0) (unit 1)
    (in_bom yes) (on_board yes) (fields_autoplaced)
    (uuid 18f66429-3d28-4ddb-9d0a-8ad2d6e0568f)
    (property "Reference" "#PWR04" (id 0) (at 158.75 177.8 0)
      (effects (font (size 1.27 1.27)) hide)
    )
    (property "Value" "GND" (id 1) (at 158.75 176.53 0))
    (property "Footprint" "" (id 2) (at 158.75 171.45 0)
      (effects (font (size 1.27 1.27)) hide)
    )
    (property "Datasheet" "" (id 3) (at 158.75 171.45 0)
      (effects (font (size 1.27 1.27)) hide)
    )
    (pin "1" (uuid aaf40558-0c86-4cb1-9f7b-d28146e32252))
  )

  (symbol (lib_id "Mechanical:MountingHole") (at 91.44 184.15 0) (unit 1)
    (in_bom yes) (on_board yes) (fields_autoplaced)
    (uuid 18ffde45-036c-4842-92c6-d70a13c0dfff)
    (property "Reference" "H1" (id 0) (at 93.98 182.8799 0)
      (effects (font (size 1.27 1.27)) (justify left))
    )
    (property "Value" "MountingHole" (id 1) (at 93.98 185.4199 0)
      (effects (font (size 1.27 1.27)) (justify left))
    )
    (property "Footprint" "MountingHole:MountingHole_3.2mm_M3" (id 2) (at 91.44 184.15 0)
      (effects (font (size 1.27 1.27)) hide)
    )
    (property "Datasheet" "~" (id 3) (at 91.44 184.15 0)
      (effects (font (size 1.27 1.27)) hide)
    )
  )

  (symbol (lib_id "Mechanical:MountingHole") (at 158.75 184.15 0) (unit 1)
    (in_bom yes) (on_board yes) (fields_autoplaced)
    (uuid 1a665eb9-9787-4c57-8c96-b9f0ca0e3ebb)
    (property "Reference" "H4" (id 0) (at 161.29 182.8799 0)
      (effects (font (size 1.27 1.27)) (justify left))
    )
    (property "Value" "MountingHole" (id 1) (at 161.29 185.4199 0)
      (effects (font (size 1.27 1.27)) (justify left))
    )
    (property "Footprint" "MountingHole:MountingHole_3.2mm_M3" (id 2) (at 158.75 184.15 0)
      (effects (font (size 1.27 1.27)) hide)
    )
    (property "Datasheet" "~" (id 3) (at 158.75 184.15 0)
      (effects (font (size 1.27 1.27)) hide)
    )
  )

  (symbol (lib_id "Mechanical:Fiducial") (at 25.4 173.99 0) (unit 1)
    (in_bom yes) (on_board yes) (fields_autoplaced)
    (uuid 1fc1f7a5-2a0c-44bb-8e36-dd6ae1a56c20)
    (property "Reference" "FID1" (id 0) (at 27.94 172.7199 0)
      (effects (font (size 1.27 1.27)) (justify left))
    )
    (property "Value" "Fiducial" (id 1) (at 27.94 175.2599 0)
      (effects (font (size 1.27 1.27)) (justify left))
    )
    (property "Footprint" "Fiducial:Fiducial_1mm_Mask2mm" (id 2) (at 25.4 173.99 0)
      (effects (font (size 1.27 1.27)) hide)
    )
    (property "Datasheet" "~" (id 3) (at 25.4 173.99 0)
      (effects (font (size 1.27 1.27)) hide)
    )
  )

  (symbol (lib_id "Mechanical:Fiducial") (at 71.12 173.99 0) (unit 1)
    (in_bom yes) (on_board yes) (fields_autoplaced)
    (uuid 2a32db63-6568-4eea-99df-577289ac6af5)
    (property "Reference" "FID4" (id 0) (at 73.66 172.7199 0)
      (effects (font (size 1.27 1.27)) (justify left))
    )
    (property "Value" "Fiducial" (id 1) (at 73.66 175.2599 0)
      (effects (font (size 1.27 1.27)) (justify left))
    )
    (property "Footprint" "Fiducial:Fiducial_1mm_Mask2mm" (id 2) (at 71.12 173.99 0)
      (effects (font (size 1.27 1.27)) hide)
    )
    (property "Datasheet" "~" (id 3) (at 71.12 173.99 0)
      (effects (font (size 1.27 1.27)) hide)
    )
  )

  (symbol (lib_id "power:PWR_FLAG") (at 158.75 171.45 0) (unit 1)
    (in_bom yes) (on_board yes) (fields_autoplaced)
    (uuid 3c7be2b9-a579-4212-a892-a734db977208)
    (property "Reference" "#FLG04" (id 0) (at 158.75 169.545 0)
      (effects (font (size 1.27 1.27)) hide)
    )
    (property "Value" "PWR_FLAG" (id 1) (at 158.75 166.37 0))
    (property "Footprint" "" (id 2) (at 158.75 171.45 0)
      (effects (font (size 1.27 1.27)) hide)
    )
    (property "Datasheet" "~" (id 3) (at 158.75 171.45 0)
      (effects (font (size 1.27 1.27)) hide)
    )
    (pin "1" (uuid 78967215-b4e2-4cc4-b4b7-5b3a1fec905c))
  )

  (symbol (lib_id "power:+3V3") (at 91.44 176.53 0) (unit 1)
    (in_bom yes) (on_board yes)
    (uuid 4011fa90-fca3-4120-a6a8-c722c49e8235)
    (property "Reference" "#PWR01" (id 0) (at 91.44 180.34 0)
      (effects (font (size 1.27 1.27)) hide)
    )
    (property "Value" "+3V3" (id 1) (at 92.71 171.45 0))
    (property "Footprint" "" (id 2) (at 91.44 176.53 0)
      (effects (font (size 1.27 1.27)) hide)
    )
    (property "Datasheet" "" (id 3) (at 91.44 176.53 0)
      (effects (font (size 1.27 1.27)) hide)
    )
    (pin "1" (uuid 4b4885e7-948c-4816-bd37-941b16496b33))
  )

  (symbol (lib_id "Mechanical:Fiducial") (at 40.64 184.15 0) (unit 1)
    (in_bom yes) (on_board yes) (fields_autoplaced)
    (uuid 49c41708-cb0c-4623-beb7-21c2df744a2c)
    (property "Reference" "FID5" (id 0) (at 43.18 182.8799 0)
      (effects (font (size 1.27 1.27)) (justify left))
    )
    (property "Value" "Fiducial" (id 1) (at 43.18 185.4199 0)
      (effects (font (size 1.27 1.27)) (justify left))
    )
    (property "Footprint" "Fiducial:Fiducial_1mm_Mask2mm" (id 2) (at 40.64 184.15 0)
      (effects (font (size 1.27 1.27)) hide)
    )
    (property "Datasheet" "~" (id 3) (at 40.64 184.15 0)
      (effects (font (size 1.27 1.27)) hide)
    )
  )

  (symbol (lib_id "Mechanical:MountingHole") (at 134.62 184.15 0) (unit 1)
    (in_bom yes) (on_board yes) (fields_autoplaced)
    (uuid 5bde0b14-1aea-422c-b1a3-572e2958a735)
    (property "Reference" "H3" (id 0) (at 137.16 182.8799 0)
      (effects (font (size 1.27 1.27)) (justify left))
    )
    (property "Value" "MountingHole" (id 1) (at 137.16 185.4199 0)
      (effects (font (size 1.27 1.27)) (justify left))
    )
    (property "Footprint" "MountingHole:MountingHole_3.2mm_M3" (id 2) (at 134.62 184.15 0)
      (effects (font (size 1.27 1.27)) hide)
    )
    (property "Datasheet" "~" (id 3) (at 134.62 184.15 0)
      (effects (font (size 1.27 1.27)) hide)
    )
  )

  (symbol (lib_id "Mechanical:Fiducial") (at 25.4 184.15 0) (unit 1)
    (in_bom yes) (on_board yes) (fields_autoplaced)
    (uuid 5c31f714-e8b7-4de9-9b58-c39272c242d3)
    (property "Reference" "FID6" (id 0) (at 27.94 182.8799 0)
      (effects (font (size 1.27 1.27)) (justify left))
    )
    (property "Value" "Fiducial" (id 1) (at 27.94 185.4199 0)
      (effects (font (size 1.27 1.27)) (justify left))
    )
    (property "Footprint" "Fiducial:Fiducial_1mm_Mask2mm" (id 2) (at 25.4 184.15 0)
      (effects (font (size 1.27 1.27)) hide)
    )
    (property "Datasheet" "~" (id 3) (at 25.4 184.15 0)
      (effects (font (size 1.27 1.27)) hide)
    )
  )

  (symbol (lib_id "power:+5V") (at 113.03 176.53 0) (unit 1)
    (in_bom yes) (on_board yes)
    (uuid 7422b3ad-e788-4ce3-8c8c-d2ad7039815e)
    (property "Reference" "#PWR03" (id 0) (at 113.03 180.34 0)
      (effects (font (size 1.27 1.27)) hide)
    )
    (property "Value" "+5V" (id 1) (at 114.3 171.45 0))
    (property "Footprint" "" (id 2) (at 113.03 176.53 0)
      (effects (font (size 1.27 1.27)) hide)
    )
    (property "Datasheet" "" (id 3) (at 113.03 176.53 0)
      (effects (font (size 1.27 1.27)) hide)
    )
    (pin "1" (uuid 7f993b10-895b-4d5c-942e-0fc49a218180))
  )

  (symbol (lib_id "power:PWR_FLAG") (at 123.19 176.53 0) (unit 1)
    (in_bom yes) (on_board yes) (fields_autoplaced)
    (uuid 77635a8f-7b40-45ab-86d7-809f11b79d02)
    (property "Reference" "#FLG02" (id 0) (at 123.19 174.625 0)
      (effects (font (size 1.27 1.27)) hide)
    )
    (property "Value" "PWR_FLAG" (id 1) (at 123.19 171.45 0))
    (property "Footprint" "" (id 2) (at 123.19 176.53 0)
      (effects (font (size 1.27 1.27)) hide)
    )
    (property "Datasheet" "~" (id 3) (at 123.19 176.53 0)
      (effects (font (size 1.27 1.27)) hide)
    )
    (pin "1" (uuid 611b35e8-e771-40ba-8011-3b3695a3b65b))
  )

  (symbol (lib_id "power:PWR_FLAG") (at 144.78 176.53 0) (unit 1)
    (in_bom yes) (on_board yes) (fields_autoplaced)
    (uuid b0a9afef-a1f0-4c18-b9e4-62c378cae34f)
    (property "Reference" "#FLG03" (id 0) (at 144.78 174.625 0)
      (effects (font (size 1.27 1.27)) hide)
    )
    (property "Value" "PWR_FLAG" (id 1) (at 144.78 171.45 0))
    (property "Footprint" "" (id 2) (at 144.78 176.53 0)
      (effects (font (size 1.27 1.27)) hide)
    )
    (property "Datasheet" "~" (id 3) (at 144.78 176.53 0)
      (effects (font (size 1.27 1.27)) hide)
    )
    (pin "1" (uuid 1c3deaf3-a3cf-4dad-ba71-b485b0c98801))
  )

  (symbol (lib_id "Mechanical:Fiducial") (at 55.88 173.99 0) (unit 1)
    (in_bom yes) (on_board yes) (fields_autoplaced)
    (uuid b47a41eb-6c33-4519-8949-2ee12b7853bf)
    (property "Reference" "FID3" (id 0) (at 58.42 172.7199 0)
      (effects (font (size 1.27 1.27)) (justify left))
    )
    (property "Value" "Fiducial" (id 1) (at 58.42 175.2599 0)
      (effects (font (size 1.27 1.27)) (justify left))
    )
    (property "Footprint" "Fiducial:Fiducial_1mm_Mask2mm" (id 2) (at 55.88 173.99 0)
      (effects (font (size 1.27 1.27)) hide)
    )
    (property "Datasheet" "~" (id 3) (at 55.88 173.99 0)
      (effects (font (size 1.27 1.27)) hide)
    )
  )

  (symbol (lib_id "Mechanical:Fiducial") (at 40.64 173.99 0) (unit 1)
    (in_bom yes) (on_board yes) (fields_autoplaced)
    (uuid bd70800d-ea87-4cfb-8569-015a3335aba5)
    (property "Reference" "FID2" (id 0) (at 43.18 172.7199 0)
      (effects (font (size 1.27 1.27)) (justify left))
    )
    (property "Value" "Fiducial" (id 1) (at 43.18 175.2599 0)
      (effects (font (size 1.27 1.27)) (justify left))
    )
    (property "Footprint" "Fiducial:Fiducial_1mm_Mask2mm" (id 2) (at 40.64 173.99 0)
      (effects (font (size 1.27 1.27)) hide)
    )
    (property "Datasheet" "~" (id 3) (at 40.64 173.99 0)
      (effects (font (size 1.27 1.27)) hide)
    )
  )

  (symbol (lib_id "power:VCC") (at 134.62 176.53 0) (unit 1)
    (in_bom yes) (on_board yes) (fields_autoplaced)
    (uuid c12839aa-c94c-49a4-a933-95ff68072ec1)
    (property "Reference" "#PWR02" (id 0) (at 134.62 180.34 0)
      (effects (font (size 1.27 1.27)) hide)
    )
    (property "Value" "VCC" (id 1) (at 134.62 170.815 0))
    (property "Footprint" "" (id 2) (at 134.62 176.53 0)
      (effects (font (size 1.27 1.27)) hide)
    )
    (property "Datasheet" "" (id 3) (at 134.62 176.53 0)
      (effects (font (size 1.27 1.27)) hide)
    )
    (pin "1" (uuid cd4a49d7-90f9-4750-bf7c-ba845910cf3c))
  )

  (symbol (lib_id "power:PWR_FLAG") (at 101.6 176.53 0) (unit 1)
    (in_bom yes) (on_board yes) (fields_autoplaced)
    (uuid f0096f68-ce80-403c-8262-500424d6b12b)
    (property "Reference" "#FLG01" (id 0) (at 101.6 174.625 0)
      (effects (font (size 1.27 1.27)) hide)
    )
    (property "Value" "PWR_FLAG" (id 1) (at 101.6 171.45 0))
    (property "Footprint" "" (id 2) (at 101.6 176.53 0)
      (effects (font (size 1.27 1.27)) hide)
    )
    (property "Datasheet" "~" (id 3) (at 101.6 176.53 0)
      (effects (font (size 1.27 1.27)) hide)
    )
    (pin "1" (uuid 3242f245-94b7-4307-9f87-e785771a1ab0))
  )

  (symbol (lib_id "Mechanical:Fiducial") (at 55.88 184.15 0) (unit 1)
    (in_bom yes) (on_board yes) (fields_autoplaced)
    (uuid f39cb093-e78b-439b-8ee1-88516a6865b4)
    (property "Reference" "FID7" (id 0) (at 58.42 182.8799 0)
      (effects (font (size 1.27 1.27)) (justify left))
    )
    (property "Value" "Fiducial" (id 1) (at 58.42 185.4199 0)
      (effects (font (size 1.27 1.27)) (justify left))
    )
    (property "Footprint" "Fiducial:Fiducial_1mm_Mask2mm" (id 2) (at 55.88 184.15 0)
      (effects (font (size 1.27 1.27)) hide)
    )
    (property "Datasheet" "~" (id 3) (at 55.88 184.15 0)
      (effects (font (size 1.27 1.27)) hide)
    )
  )

  (symbol (lib_id "Mechanical:Fiducial") (at 71.12 184.15 0) (unit 1)
    (in_bom yes) (on_board yes) (fields_autoplaced)
    (uuid fa4f511f-d34c-4560-a5ca-cf4a662997e0)
    (property "Reference" "FID8" (id 0) (at 73.66 182.8799 0)
      (effects (font (size 1.27 1.27)) (justify left))
    )
    (property "Value" "Fiducial" (id 1) (at 73.66 185.4199 0)
      (effects (font (size 1.27 1.27)) (justify left))
    )
    (property "Footprint" "Fiducial:Fiducial_1mm_Mask2mm" (id 2) (at 71.12 184.15 0)
      (effects (font (size 1.27 1.27)) hide)
    )
    (property "Datasheet" "~" (id 3) (at 71.12 184.15 0)
      (effects (font (size 1.27 1.27)) hide)
    )
  )

  (sheet (at 43.18 43.18) (size 50.8 30.48) (fields_autoplaced)
    (stroke (width 0.1524) (type solid) (color 0 0 0 0))
    (fill (color 0 0 0 0.0000))
    (uuid 0e9135c0-b4e1-4178-a116-e80ca62d2183)
    (property "Sheet name" "Microcontrol" (id 0) (at 43.18 42.4684 0)
      (effects (font (size 1.27 1.27)) (justify left bottom))
    )
    (property "Sheet file" "schemasheets/control.kicad_sch" (id 1) (at 43.18 74.2446 0)
      (effects (font (size 1.27 1.27)) (justify left top))
    )
  )

  (sheet (at 124.46 104.14) (size 50.8 30.48) (fields_autoplaced)
    (stroke (width 0.1524) (type solid) (color 0 0 0 0))
    (fill (color 0 0 0 0.0000))
    (uuid 43e908e6-4e8c-4869-9321-75ec63d3be0e)
    (property "Sheet name" "Inputoutput" (id 0) (at 124.46 103.4284 0)
      (effects (font (size 1.27 1.27)) (justify left bottom))
    )
    (property "Sheet file" "schemasheets/inoutput.kicad_sch" (id 1) (at 124.46 135.2046 0)
      (effects (font (size 1.27 1.27)) (justify left top))
    )
  )

  (sheet (at 124.46 43.18) (size 50.8 30.48) (fields_autoplaced)
    (stroke (width 0.1524) (type solid) (color 0 0 0 0))
    (fill (color 0 0 0 0.0000))
    (uuid 8defd7fa-4f3e-463e-80fe-a61c4cda154a)
    (property "Sheet name" "Illumination" (id 0) (at 124.46 42.4684 0)
      (effects (font (size 1.27 1.27)) (justify left bottom))
    )
    (property "Sheet file" "schemasheets/lights.kicad_sch" (id 1) (at 124.46 74.2446 0)
      (effects (font (size 1.27 1.27)) (justify left top))
    )
  )

  (sheet (at 205.74 43.18) (size 50.8 30.48) (fields_autoplaced)
    (stroke (width 0.1524) (type solid) (color 0 0 0 0))
    (fill (color 0 0 0 0.0000))
    (uuid b5dbda8e-b91f-4df5-97b8-c00c7d77d0b4)
    (property "Sheet name" "Serialconnect" (id 0) (at 205.74 42.4684 0)
      (effects (font (size 1.27 1.27)) (justify left bottom))
    )
    (property "Sheet file" "schemasheets/serial.kicad_sch" (id 1) (at 205.74 74.2446 0)
      (effects (font (size 1.27 1.27)) (justify left top))
    )
  )

  (sheet (at 43.18 104.14) (size 50.8 30.48) (fields_autoplaced)
    (stroke (width 0.1524) (type solid) (color 0 0 0 0))
    (fill (color 0 0 0 0.0000))
    (uuid dbf441f5-9619-4381-966d-84f7e26363cc)
    (property "Sheet name" "Powermanage" (id 0) (at 43.18 103.4284 0)
      (effects (font (size 1.27 1.27)) (justify left bottom))
    )
    (property "Sheet file" "schemasheets/power.kicad_sch" (id 1) (at 43.18 135.2046 0)
      (effects (font (size 1.27 1.27)) (justify left top))
    )
  )

  (sheet_instances
    (path "/" (page "1"))
    (path "/0e9135c0-b4e1-4178-a116-e80ca62d2183" (page "2"))
    (path "/8defd7fa-4f3e-463e-80fe-a61c4cda154a" (page "3"))
    (path "/dbf441f5-9619-4381-966d-84f7e26363cc" (page "4"))
    (path "/43e908e6-4e8c-4869-9321-75ec63d3be0e" (page "5"))
    (path "/b5dbda8e-b91f-4df5-97b8-c00c7d77d0b4" (page "6"))
  )

  (symbol_instances
    (path "/f0096f68-ce80-403c-8262-500424d6b12b"
      (reference "#FLG01") (unit 1) (value "PWR_FLAG") (footprint "")
    )
    (path "/77635a8f-7b40-45ab-86d7-809f11b79d02"
      (reference "#FLG02") (unit 1) (value "PWR_FLAG") (footprint "")
    )
    (path "/b0a9afef-a1f0-4c18-b9e4-62c378cae34f"
      (reference "#FLG03") (unit 1) (value "PWR_FLAG") (footprint "")
    )
    (path "/3c7be2b9-a579-4212-a892-a734db977208"
      (reference "#FLG04") (unit 1) (value "PWR_FLAG") (footprint "")
    )
    (path "/43e908e6-4e8c-4869-9321-75ec63d3be0e/f1fd571f-69e1-4d71-9ff5-58336ba4c39f"
      (reference "#FLG0101") (unit 1) (value "PWR_FLAG") (footprint "")
    )
    (path "/4011fa90-fca3-4120-a6a8-c722c49e8235"
      (reference "#PWR01") (unit 1) (value "+3V3") (footprint "")
    )
    (path "/c12839aa-c94c-49a4-a933-95ff68072ec1"
      (reference "#PWR02") (unit 1) (value "VCC") (footprint "")
    )
    (path "/7422b3ad-e788-4ce3-8c8c-d2ad7039815e"
      (reference "#PWR03") (unit 1) (value "+5V") (footprint "")
    )
    (path "/18f66429-3d28-4ddb-9d0a-8ad2d6e0568f"
      (reference "#PWR04") (unit 1) (value "GND") (footprint "")
    )
    (path "/0e9135c0-b4e1-4178-a116-e80ca62d2183/ccac547c-f5f8-47c5-966f-0540b506e13c"
      (reference "#PWR05") (unit 1) (value "GND") (footprint "")
    )
    (path "/0e9135c0-b4e1-4178-a116-e80ca62d2183/d059cc37-3dd7-4d0e-85fc-dc7a4b2e6729"
      (reference "#PWR06") (unit 1) (value "GND") (footprint "")
    )
    (path "/0e9135c0-b4e1-4178-a116-e80ca62d2183/57b757da-3cb4-4fcf-9d7f-5cbd2ff14ef1"
      (reference "#PWR07") (unit 1) (value "+3V3") (footprint "")
    )
    (path "/0e9135c0-b4e1-4178-a116-e80ca62d2183/bba610af-068b-43f2-8d23-3ab9866d3df5"
      (reference "#PWR08") (unit 1) (value "GND") (footprint "")
    )
    (path "/0e9135c0-b4e1-4178-a116-e80ca62d2183/b56cf89e-0879-460b-b046-ffd0b0920683"
      (reference "#PWR09") (unit 1) (value "GND") (footprint "")
    )
    (path "/0e9135c0-b4e1-4178-a116-e80ca62d2183/cd29126e-aba9-4a1a-98ab-9757b39a85b7"
      (reference "#PWR010") (unit 1) (value "+3V3") (footprint "")
    )
    (path "/0e9135c0-b4e1-4178-a116-e80ca62d2183/6aed9747-e865-461e-8aa9-71f720f521be"
      (reference "#PWR011") (unit 1) (value "GND") (footprint "")
    )
    (path "/43e908e6-4e8c-4869-9321-75ec63d3be0e/68220b4a-7b52-4fc1-9fdf-1d3e29aeae73"
      (reference "#PWR012") (unit 1) (value "+3V3") (footprint "")
    )
    (path "/0e9135c0-b4e1-4178-a116-e80ca62d2183/17de5591-39de-4c47-8488-1c4d8df770f8"
      (reference "#PWR013") (unit 1) (value "+3V3") (footprint "")
    )
    (path "/0e9135c0-b4e1-4178-a116-e80ca62d2183/7f28cbc4-4528-47cb-a445-3e58297de022"
      (reference "#PWR014") (unit 1) (value "GND") (footprint "")
    )
    (path "/43e908e6-4e8c-4869-9321-75ec63d3be0e/f97dbeb5-b67c-4421-abb2-9082b60b40c3"
      (reference "#PWR015") (unit 1) (value "GND") (footprint "")
    )
    (path "/8defd7fa-4f3e-463e-80fe-a61c4cda154a/2222c6e1-1a54-48af-b6b8-b4ddfc444557"
      (reference "#PWR016") (unit 1) (value "GND") (footprint "")
    )
    (path "/8defd7fa-4f3e-463e-80fe-a61c4cda154a/b8822758-430c-4efd-821e-07c84fc4812e"
      (reference "#PWR017") (unit 1) (value "VCC") (footprint "")
    )
    (path "/8defd7fa-4f3e-463e-80fe-a61c4cda154a/81c837e5-7991-4d84-acff-2e696dd7e3d0"
      (reference "#PWR018") (unit 1) (value "GND") (footprint "")
    )
    (path "/8defd7fa-4f3e-463e-80fe-a61c4cda154a/42fc3d7e-5374-4814-a182-1b1b4a00ad98"
      (reference "#PWR019") (unit 1) (value "GND") (footprint "")
    )
    (path "/8defd7fa-4f3e-463e-80fe-a61c4cda154a/b35f5c8f-a17e-4950-a323-7205bd5b43ef"
      (reference "#PWR020") (unit 1) (value "GND") (footprint "")
    )
    (path "/8defd7fa-4f3e-463e-80fe-a61c4cda154a/a3eddccb-5700-40eb-87c7-9012acad9f2c"
      (reference "#PWR021") (unit 1) (value "GND") (footprint "")
    )
    (path "/8defd7fa-4f3e-463e-80fe-a61c4cda154a/21661a13-d499-430b-b544-d8fd64c42ecb"
      (reference "#PWR022") (unit 1) (value "GND") (footprint "")
    )
    (path "/8defd7fa-4f3e-463e-80fe-a61c4cda154a/c613bc20-cc67-42dc-b11e-15f6da7f6f37"
      (reference "#PWR023") (unit 1) (value "GND") (footprint "")
    )
    (path "/8defd7fa-4f3e-463e-80fe-a61c4cda154a/b2b405b1-bdec-42ce-adc3-cdd64f9d4045"
      (reference "#PWR024") (unit 1) (value "GND") (footprint "")
    )
    (path "/8defd7fa-4f3e-463e-80fe-a61c4cda154a/45ac3ce4-3313-4127-9d8e-e013b2555d1d"
      (reference "#PWR025") (unit 1) (value "GND") (footprint "")
    )
    (path "/8defd7fa-4f3e-463e-80fe-a61c4cda154a/27a77909-d422-4ac2-9e5c-958e02e7b254"
      (reference "#PWR026") (unit 1) (value "GND") (footprint "")
    )
    (path "/8defd7fa-4f3e-463e-80fe-a61c4cda154a/208a472d-0329-4a08-a95e-dafcefde1413"
      (reference "#PWR027") (unit 1) (value "GND") (footprint "")
    )
    (path "/8defd7fa-4f3e-463e-80fe-a61c4cda154a/cb133c23-0230-4e7d-a604-44726f8847f5"
      (reference "#PWR028") (unit 1) (value "GND") (footprint "")
    )
    (path "/8defd7fa-4f3e-463e-80fe-a61c4cda154a/e1cbdc2d-9a94-4e50-be74-3f5101bb6097"
      (reference "#PWR029") (unit 1) (value "GND") (footprint "")
    )
    (path "/8defd7fa-4f3e-463e-80fe-a61c4cda154a/95edabae-0888-4bff-847d-eb7be2c6f1b0"
      (reference "#PWR030") (unit 1) (value "GND") (footprint "")
    )
    (path "/8defd7fa-4f3e-463e-80fe-a61c4cda154a/cad340f2-56ee-4d4b-918f-0bac28a81e26"
      (reference "#PWR031") (unit 1) (value "GND") (footprint "")
    )
    (path "/8defd7fa-4f3e-463e-80fe-a61c4cda154a/c7b1f5ab-f7a7-4fb3-a8e3-68e7b86f845f"
      (reference "#PWR032") (unit 1) (value "GND") (footprint "")
    )
    (path "/8defd7fa-4f3e-463e-80fe-a61c4cda154a/52434039-0df2-4768-8b5b-e72637941f7a"
      (reference "#PWR033") (unit 1) (value "GND") (footprint "")
    )
    (path "/dbf441f5-9619-4381-966d-84f7e26363cc/a60cc6ac-c8d0-4714-bd63-e5731390c11b"
      (reference "#PWR034") (unit 1) (value "+5V") (footprint "")
    )
    (path "/dbf441f5-9619-4381-966d-84f7e26363cc/c5045078-56eb-4804-9701-71177f757880"
      (reference "#PWR035") (unit 1) (value "VCC") (footprint "")
    )
    (path "/dbf441f5-9619-4381-966d-84f7e26363cc/05bdf338-932d-4f12-86d3-222e25628991"
      (reference "#PWR036") (unit 1) (value "GND") (footprint "")
    )
    (path "/dbf441f5-9619-4381-966d-84f7e26363cc/f5fbb9b6-9d84-49f1-bd91-f328c26ef98c"
      (reference "#PWR037") (unit 1) (value "+5V") (footprint "")
    )
    (path "/dbf441f5-9619-4381-966d-84f7e26363cc/e03e67d6-96e2-4311-a0fa-3770a2e1f36e"
      (reference "#PWR038") (unit 1) (value "GND") (footprint "")
    )
    (path "/dbf441f5-9619-4381-966d-84f7e26363cc/1f788dd6-64f4-4d8e-bfdc-b4e0978c3dda"
      (reference "#PWR039") (unit 1) (value "+5V") (footprint "")
    )
    (path "/dbf441f5-9619-4381-966d-84f7e26363cc/1788d787-1258-44a7-bcfc-740a32c384d6"
      (reference "#PWR040") (unit 1) (value "GND") (footprint "")
    )
    (path "/dbf441f5-9619-4381-966d-84f7e26363cc/25dfea08-65cf-48ec-a05b-031a8296520e"
      (reference "#PWR041") (unit 1) (value "+3V3") (footprint "")
    )
    (path "/dbf441f5-9619-4381-966d-84f7e26363cc/a9b3f0e9-2620-4a03-9014-d0ef949bda3a"
      (reference "#PWR042") (unit 1) (value "GND") (footprint "")
    )
    (path "/43e908e6-4e8c-4869-9321-75ec63d3be0e/99462a2e-1122-4b0b-a2f0-fbf73e9b71a5"
      (reference "#PWR043") (unit 1) (value "GND") (footprint "")
    )
    (path "/dbf441f5-9619-4381-966d-84f7e26363cc/5f759820-ae14-44a7-a135-3d22a66a80d1"
      (reference "#PWR044") (unit 1) (value "GND") (footprint "")
    )
    (path "/dbf441f5-9619-4381-966d-84f7e26363cc/c5bcd640-1cc7-45af-a52e-d7b73bde40c4"
      (reference "#PWR045") (unit 1) (value "GND") (footprint "")
    )
    (path "/dbf441f5-9619-4381-966d-84f7e26363cc/7f46d240-abaa-439d-ba53-b6d5f7cb5629"
      (reference "#PWR046") (unit 1) (value "+5V") (footprint "")
    )
    (path "/dbf441f5-9619-4381-966d-84f7e26363cc/8a2eb2bc-2784-4fa0-86f1-ad0762ac8e56"
      (reference "#PWR047") (unit 1) (value "VCC") (footprint "")
    )
    (path "/43e908e6-4e8c-4869-9321-75ec63d3be0e/0bc25759-6305-4b4f-92d9-5e9c36f8beaf"
      (reference "#PWR048") (unit 1) (value "GND") (footprint "")
    )
    (path "/dbf441f5-9619-4381-966d-84f7e26363cc/b2a7d0f9-1727-4a77-a981-14a71f99e995"
      (reference "#PWR049") (unit 1) (value "GND") (footprint "")
    )
    (path "/43e908e6-4e8c-4869-9321-75ec63d3be0e/e2b6d9e6-fcb6-4dc9-970c-bb201e1e3846"
      (reference "#PWR050") (unit 1) (value "GND") (footprint "")
    )
    (path "/43e908e6-4e8c-4869-9321-75ec63d3be0e/62451693-bd52-4cb5-b46a-ba42ac026379"
      (reference "#PWR051") (unit 1) (value "+3V3") (footprint "")
    )
    (path "/43e908e6-4e8c-4869-9321-75ec63d3be0e/692e9fea-6ae6-4792-9543-c2044fc216ba"
      (reference "#PWR052") (unit 1) (value "GND") (footprint "")
    )
    (path "/43e908e6-4e8c-4869-9321-75ec63d3be0e/bde94f1d-0e1a-4079-a60d-077567a16f1c"
      (reference "#PWR053") (unit 1) (value "GND") (footprint "")
    )
    (path "/43e908e6-4e8c-4869-9321-75ec63d3be0e/9e380b79-3436-44f6-a214-32d07392cad8"
      (reference "#PWR054") (unit 1) (value "GND") (footprint "")
    )
    (path "/43e908e6-4e8c-4869-9321-75ec63d3be0e/07a129f3-f2d6-4ca2-a3f1-325774b55532"
      (reference "#PWR055") (unit 1) (value "+3V3") (footprint "")
    )
    (path "/43e908e6-4e8c-4869-9321-75ec63d3be0e/2bb2e4f4-2af3-4736-9ac7-c2d7107fb072"
      (reference "#PWR056") (unit 1) (value "+3V3") (footprint "")
    )
    (path "/43e908e6-4e8c-4869-9321-75ec63d3be0e/0c3e1789-22f1-49dc-9207-61130b8786da"
      (reference "#PWR057") (unit 1) (value "GND") (footprint "")
    )
    (path "/43e908e6-4e8c-4869-9321-75ec63d3be0e/41293a5d-a646-4ab0-9800-448c2b1aa1af"
      (reference "#PWR058") (unit 1) (value "+3V3") (footprint "")
    )
    (path "/43e908e6-4e8c-4869-9321-75ec63d3be0e/11f515a5-b7d5-4760-90bd-788b78b0c4be"
      (reference "#PWR059") (unit 1) (value "GND") (footprint "")
    )
    (path "/43e908e6-4e8c-4869-9321-75ec63d3be0e/8cab3b0b-fd8a-4d71-bcd1-6543b79c65f7"
      (reference "#PWR060") (unit 1) (value "GND") (footprint "")
    )
    (path "/43e908e6-4e8c-4869-9321-75ec63d3be0e/8da57899-efad-4e7f-ab59-706aa1030beb"
      (reference "#PWR061") (unit 1) (value "+3V3") (footprint "")
    )
    (path "/43e908e6-4e8c-4869-9321-75ec63d3be0e/ff7ba6e1-b7ab-479e-aad5-4555062856a7"
      (reference "#PWR062") (unit 1) (value "GND") (footprint "")
    )
    (path "/43e908e6-4e8c-4869-9321-75ec63d3be0e/1fdf270d-b193-4b2b-9ec8-5b47d879aaa3"
      (reference "#PWR063") (unit 1) (value "+3V3") (footprint "")
    )
    (path "/43e908e6-4e8c-4869-9321-75ec63d3be0e/5cebeb6d-6ae7-4d0a-9209-4628a3c838fe"
      (reference "#PWR064") (unit 1) (value "GND") (footprint "")
    )
    (path "/43e908e6-4e8c-4869-9321-75ec63d3be0e/63e7ffc9-8aad-40c4-a9af-2cb24476aa08"
      (reference "#PWR065") (unit 1) (value "+3V3") (footprint "")
    )
    (path "/b5dbda8e-b91f-4df5-97b8-c00c7d77d0b4/9470bcbf-1447-480c-9f76-f28448c47158"
      (reference "#PWR066") (unit 1) (value "GND") (footprint "")
    )
    (path "/b5dbda8e-b91f-4df5-97b8-c00c7d77d0b4/d5f1024a-22db-42c2-a593-83471cdc2de2"
      (reference "#PWR067") (unit 1) (value "+3V3") (footprint "")
    )
    (path "/b5dbda8e-b91f-4df5-97b8-c00c7d77d0b4/70d5d3b2-733d-41a7-8da1-b76bb9a66009"
      (reference "#PWR068") (unit 1) (value "GND") (footprint "")
    )
    (path "/b5dbda8e-b91f-4df5-97b8-c00c7d77d0b4/9f687339-c362-4907-8af0-a4163cae889e"
      (reference "#PWR069") (unit 1) (value "+5V") (footprint "")
    )
    (path "/b5dbda8e-b91f-4df5-97b8-c00c7d77d0b4/c02c2e6f-5f64-4e7d-9784-2a81d008a652"
      (reference "#PWR070") (unit 1) (value "GND") (footprint "")
    )
    (path "/0e9135c0-b4e1-4178-a116-e80ca62d2183/835fedc9-6f66-4b2e-9006-d78a0a949431"
      (reference "#PWR071") (unit 1) (value "GND") (footprint "")
    )
    (path "/0e9135c0-b4e1-4178-a116-e80ca62d2183/674848fe-44e1-4d69-baa8-b7e6d0ba869b"
      (reference "#PWR072") (unit 1) (value "VCC") (footprint "")
    )
    (path "/43e908e6-4e8c-4869-9321-75ec63d3be0e/b45d5cc3-052a-4a14-b9ec-f7a3c2e3f0fc"
      (reference "#PWR073") (unit 1) (value "+3V3") (footprint "")
    )
    (path "/43e908e6-4e8c-4869-9321-75ec63d3be0e/06766b68-467f-4b5d-8096-adb4486b4475"
      (reference "#PWR074") (unit 1) (value "GND") (footprint "")
    )
    (path "/43e908e6-4e8c-4869-9321-75ec63d3be0e/a03a92c3-9f40-412a-89de-11bf25c00022"
      (reference "#PWR075") (unit 1) (value "+3V3") (footprint "")
    )
    (path "/43e908e6-4e8c-4869-9321-75ec63d3be0e/09e51985-a22b-406f-9fab-a32518b11452"
      (reference "#PWR076") (unit 1) (value "+3V3") (footprint "")
    )
    (path "/43e908e6-4e8c-4869-9321-75ec63d3be0e/fb63cb42-a20b-43be-b9bd-c84f6b613764"
      (reference "#PWR077") (unit 1) (value "GND") (footprint "")
    )
    (path "/43e908e6-4e8c-4869-9321-75ec63d3be0e/724cea1e-c858-4943-a614-07d6786f5d48"
      (reference "#PWR078") (unit 1) (value "+3V3") (footprint "")
    )
    (path "/43e908e6-4e8c-4869-9321-75ec63d3be0e/c744ddd4-28c3-4e53-a322-9c78bb0b44e2"
      (reference "#PWR079") (unit 1) (value "GND") (footprint "")
    )
    (path "/43e908e6-4e8c-4869-9321-75ec63d3be0e/4473744d-24af-4a8f-9dd3-21f3e4d0e16f"
      (reference "#PWR080") (unit 1) (value "+3V3") (footprint "")
    )
    (path "/43e908e6-4e8c-4869-9321-75ec63d3be0e/f337c15e-2c46-4067-8703-5c5476197e6a"
      (reference "#PWR081") (unit 1) (value "GND") (footprint "")
    )
    (path "/43e908e6-4e8c-4869-9321-75ec63d3be0e/6142dcec-8154-4fdb-8368-23bb790ad5a8"
      (reference "#PWR082") (unit 1) (value "+12V") (footprint "")
    )
    (path "/43e908e6-4e8c-4869-9321-75ec63d3be0e/3ff2b782-f6b6-476e-b556-ea7c364df10b"
      (reference "#PWR083") (unit 1) (value "+3V3") (footprint "")
    )
    (path "/43e908e6-4e8c-4869-9321-75ec63d3be0e/fe5b122e-6eb9-4401-b7de-84d553e79673"
      (reference "#PWR084") (unit 1) (value "GND") (footprint "")
    )
    (path "/43e908e6-4e8c-4869-9321-75ec63d3be0e/82e17193-ace2-4166-8040-52c3c59c943e"
      (reference "#PWR085") (unit 1) (value "GND") (footprint "")
    )
    (path "/43e908e6-4e8c-4869-9321-75ec63d3be0e/6bf2944c-8b58-4d50-8000-9edc435f46d7"
      (reference "#PWR086") (unit 1) (value "GND") (footprint "")
    )
    (path "/43e908e6-4e8c-4869-9321-75ec63d3be0e/ca36de6c-58a0-4ee1-ae37-bbebdede1131"
      (reference "#PWR087") (unit 1) (value "GND") (footprint "")
    )
    (path "/43e908e6-4e8c-4869-9321-75ec63d3be0e/584975e7-548c-4969-bdb9-ce9977884598"
      (reference "#PWR088") (unit 1) (value "+3V3") (footprint "")
    )
    (path "/43e908e6-4e8c-4869-9321-75ec63d3be0e/bf0870b4-91b0-4f0e-8976-45b812b1b4e4"
      (reference "#PWR0101") (unit 1) (value "GND") (footprint "")
    )
    (path "/43e908e6-4e8c-4869-9321-75ec63d3be0e/7e22eb51-2bb1-468e-853c-7cbb0cb493e1"
      (reference "#PWR0102") (unit 1) (value "GND") (footprint "")
    )
    (path "/0e9135c0-b4e1-4178-a116-e80ca62d2183/801733e5-5ede-4721-8dc6-cd617d1844bd"
      (reference "#PWR0103") (unit 1) (value "GND") (footprint "")
    )
    (path "/43e908e6-4e8c-4869-9321-75ec63d3be0e/5e54bc53-490e-4e71-8a07-360c5718b78a"
      (reference "#PWR0104") (unit 1) (value "VCC") (footprint "")
    )
    (path "/43e908e6-4e8c-4869-9321-75ec63d3be0e/ab009f61-b199-4849-a39c-f4d01007e6b4"
      (reference "#PWR0105") (unit 1) (value "GND") (footprint "")
    )
    (path "/43e908e6-4e8c-4869-9321-75ec63d3be0e/6dadb3f0-ed47-4806-848a-fe10b5586ea8"
      (reference "#PWR0106") (unit 1) (value "+12V") (footprint "")
    )
    (path "/43e908e6-4e8c-4869-9321-75ec63d3be0e/1a7b0537-3167-4104-9eee-add0c1e86e30"
      (reference "#PWR0107") (unit 1) (value "GND") (footprint "")
    )
    (path "/dbf441f5-9619-4381-966d-84f7e26363cc/a382b0c2-d3c1-43a0-bb6e-d8b3920aadc4"
      (reference "#PWR0108") (unit 1) (value "+5V") (footprint "")
    )
    (path "/0e9135c0-b4e1-4178-a116-e80ca62d2183/c3d97cdc-8515-43e3-b1bb-a4ab23ed37d0"
      (reference "#PWR0109") (unit 1) (value "GND") (footprint "")
    )
    (path "/43e908e6-4e8c-4869-9321-75ec63d3be0e/324eab89-63cc-426d-80c9-039868ea5bf2"
      (reference "AE1") (unit 1) (value "Antenna_Loop") (footprint "Mondev:NFCAntenna_65mm_north")
    )
    (path "/43e908e6-4e8c-4869-9321-75ec63d3be0e/a3ea82a2-0376-4b15-b804-1504a9c4d4f0"
      (reference "AE2") (unit 1) (value "Antenna_Conn") (footprint "Mondev:Molex_5051100492-1x04-P0.5mm_Horizontal")
    )
    (path "/0e9135c0-b4e1-4178-a116-e80ca62d2183/4af16160-19f7-45ee-a9a7-20b23759315d"
      (reference "AE3") (unit 1) (value "Antenna") (footprint "RF_Antenna:Texas_SWRA117D_2.4GHz_Right")
    )
    (path "/0e9135c0-b4e1-4178-a116-e80ca62d2183/7aaa4fec-aba5-42b8-82ee-e7ac1f166a82"
      (reference "AE4") (unit 1) (value "Antenna") (footprint "Connector_Coaxial:SMA_Samtec_SMA-J-P-X-ST-EM1_EdgeMount")
    )
    (path "/dbf441f5-9619-4381-966d-84f7e26363cc/cd10bfd4-fe40-437f-aae2-9929e973c545"
      (reference "BT1") (unit 1) (value "Battery_Cell") (footprint "Connector_Molex:Molex_PicoBlade_53261-0371_1x03-1MP_P1.25mm_Horizontal")
    )
    (path "/0e9135c0-b4e1-4178-a116-e80ca62d2183/c7b93edf-06f0-44b2-a4d9-32839e2e3574"
      (reference "C1") (unit 1) (value "18pF") (footprint "Capacitor_SMD:C_0805_2012Metric")
    )
    (path "/0e9135c0-b4e1-4178-a116-e80ca62d2183/fdb534c9-ccfa-4844-b295-596a5c2a2ebe"
      (reference "C2") (unit 1) (value "18pF") (footprint "Capacitor_SMD:C_0805_2012Metric")
    )
    (path "/0e9135c0-b4e1-4178-a116-e80ca62d2183/87c732be-a743-4470-87dd-d72e50f367c5"
      (reference "C3") (unit 1) (value "10uF") (footprint "Capacitor_SMD:C_0805_2012Metric")
    )
    (path "/0e9135c0-b4e1-4178-a116-e80ca62d2183/03f8ab8a-00c1-4244-9df5-00428de22dfe"
      (reference "C4") (unit 1) (value "0,1uF") (footprint "Capacitor_SMD:C_0805_2012Metric")
    )
    (path "/0e9135c0-b4e1-4178-a116-e80ca62d2183/16898458-3b92-4e86-ad2b-cb0d1f982cf9"
      (reference "C5") (unit 1) (value "15pF") (footprint "Capacitor_SMD:C_0805_2012Metric")
    )
    (path "/0e9135c0-b4e1-4178-a116-e80ca62d2183/45211f01-36d4-4858-9078-b956c8b5ae91"
      (reference "C6") (unit 1) (value "0,1uF") (footprint "Capacitor_SMD:C_0805_2012Metric")
    )
    (path "/0e9135c0-b4e1-4178-a116-e80ca62d2183/25b3d79a-31cc-45b3-b0ea-2aab73a88d03"
      (reference "C7") (unit 1) (value "15pF") (footprint "Capacitor_SMD:C_0805_2012Metric")
    )
    (path "/0e9135c0-b4e1-4178-a116-e80ca62d2183/a2a2240b-0dc1-4d53-9872-c4a0f91325f7"
      (reference "C8") (unit 1) (value "1uF") (footprint "Capacitor_SMD:C_0805_2012Metric")
    )
    (path "/0e9135c0-b4e1-4178-a116-e80ca62d2183/c40555a2-76f6-47f6-8565-ddb5b88a8a7f"
      (reference "C9") (unit 1) (value "1uF") (footprint "Capacitor_SMD:C_0805_2012Metric")
    )
    (path "/0e9135c0-b4e1-4178-a116-e80ca62d2183/8dfd8f9e-8f7a-49e3-b75e-7d64e25bc6f5"
      (reference "C10") (unit 1) (value "0,01uF") (footprint "Capacitor_SMD:C_0805_2012Metric")
    )
    (path "/0e9135c0-b4e1-4178-a116-e80ca62d2183/64362d08-1e6e-4acf-8e53-088d8e0859c7"
      (reference "C11") (unit 1) (value "0,1uF") (footprint "Capacitor_SMD:C_0805_2012Metric")
    )
    (path "/0e9135c0-b4e1-4178-a116-e80ca62d2183/2d45e743-5cc0-4a35-82ea-36becba0b3b7"
      (reference "C12") (unit 1) (value "0,1uF") (footprint "Capacitor_SMD:C_0805_2012Metric")
    )
    (path "/0e9135c0-b4e1-4178-a116-e80ca62d2183/e2c8e7ee-3cf7-4e4f-bd92-5a70c22482e2"
      (reference "C13") (unit 1) (value "1uF") (footprint "Capacitor_SMD:C_0805_2012Metric")
    )
    (path "/43e908e6-4e8c-4869-9321-75ec63d3be0e/c0b39050-9cc5-4b94-b571-c38c5bbe6065"
      (reference "C14") (unit 1) (value "0,1uF") (footprint "Capacitor_SMD:C_0805_2012Metric")
    )
    (path "/8defd7fa-4f3e-463e-80fe-a61c4cda154a/f7b0b693-2513-47b9-aeef-714d278341db"
      (reference "C15") (unit 1) (value "0,1uF") (footprint "Capacitor_SMD:C_0805_2012Metric")
    )
    (path "/8defd7fa-4f3e-463e-80fe-a61c4cda154a/5b4d0a67-ed30-4509-81db-40df2bb45754"
      (reference "C16") (unit 1) (value "0,1uF") (footprint "Capacitor_SMD:C_0805_2012Metric")
    )
    (path "/8defd7fa-4f3e-463e-80fe-a61c4cda154a/3e4e118c-1d27-4e25-84d0-e15bca3119a1"
      (reference "C17") (unit 1) (value "0,1uF") (footprint "Capacitor_SMD:C_0805_2012Metric")
    )
    (path "/8defd7fa-4f3e-463e-80fe-a61c4cda154a/315348d7-dc78-4792-b8fb-01b178ededfa"
      (reference "C18") (unit 1) (value "0,1uF") (footprint "Capacitor_SMD:C_0805_2012Metric")
    )
    (path "/8defd7fa-4f3e-463e-80fe-a61c4cda154a/16b11c07-ee71-41d1-97b0-a2ea7be6e7b6"
      (reference "C19") (unit 1) (value "0,1uF") (footprint "Capacitor_SMD:C_0805_2012Metric")
    )
    (path "/8defd7fa-4f3e-463e-80fe-a61c4cda154a/d9e0a165-09a4-4824-a9ce-587ad8b489da"
      (reference "C20") (unit 1) (value "0,1uF") (footprint "Capacitor_SMD:C_0805_2012Metric")
    )
    (path "/8defd7fa-4f3e-463e-80fe-a61c4cda154a/c43319b5-8316-4297-9228-4791f9edc43f"
      (reference "C21") (unit 1) (value "0,1uF") (footprint "Capacitor_SMD:C_0805_2012Metric")
    )
    (path "/8defd7fa-4f3e-463e-80fe-a61c4cda154a/ffc085f0-5f24-4480-9762-f6a7564d320f"
      (reference "C22") (unit 1) (value "0,1uF") (footprint "Capacitor_SMD:C_0805_2012Metric")
    )
    (path "/8defd7fa-4f3e-463e-80fe-a61c4cda154a/22845a61-3701-4be2-a628-3e70dd387b44"
      (reference "C23") (unit 1) (value "0,1uF") (footprint "Capacitor_SMD:C_0805_2012Metric")
    )
    (path "/8defd7fa-4f3e-463e-80fe-a61c4cda154a/fff7120b-e132-464c-862e-e94fa7e4d643"
      (reference "C24") (unit 1) (value "0,1uF") (footprint "Capacitor_SMD:C_0805_2012Metric")
    )
    (path "/8defd7fa-4f3e-463e-80fe-a61c4cda154a/805acd9c-448d-496d-b5d8-eb48783cf372"
      (reference "C25") (unit 1) (value "0,1uF") (footprint "Capacitor_SMD:C_0805_2012Metric")
    )
    (path "/8defd7fa-4f3e-463e-80fe-a61c4cda154a/aadedf80-eb94-456f-855b-aa97312d350c"
      (reference "C26") (unit 1) (value "0,1uF") (footprint "Capacitor_SMD:C_0805_2012Metric")
    )
    (path "/8defd7fa-4f3e-463e-80fe-a61c4cda154a/eeb8f576-bf43-4425-a111-d4bf1e14b7b7"
      (reference "C27") (unit 1) (value "0,1uF") (footprint "Capacitor_SMD:C_0805_2012Metric")
    )
    (path "/8defd7fa-4f3e-463e-80fe-a61c4cda154a/61a9a697-9d88-4e1d-8bad-1fdbfcea9a33"
      (reference "C28") (unit 1) (value "0,1uF") (footprint "Capacitor_SMD:C_0805_2012Metric")
    )
    (path "/8defd7fa-4f3e-463e-80fe-a61c4cda154a/3fa53404-626a-450f-8f27-b8d0355ab41c"
      (reference "C29") (unit 1) (value "0,1uF") (footprint "Capacitor_SMD:C_0805_2012Metric")
    )
    (path "/8defd7fa-4f3e-463e-80fe-a61c4cda154a/e9db0acb-9596-44cf-96b1-1f88366264e3"
      (reference "C30") (unit 1) (value "0,1uF") (footprint "Capacitor_SMD:C_0805_2012Metric")
    )
    (path "/dbf441f5-9619-4381-966d-84f7e26363cc/2c0a89e6-0bab-45bf-9ffa-0d648c9937f5"
      (reference "C31") (unit 1) (value "10uF") (footprint "Capacitor_SMD:C_0805_2012Metric")
    )
    (path "/dbf441f5-9619-4381-966d-84f7e26363cc/3776ed17-29da-4dcb-90b3-a7606449a11d"
      (reference "C32") (unit 1) (value "1uF") (footprint "Capacitor_SMD:C_0805_2012Metric")
    )
    (path "/dbf441f5-9619-4381-966d-84f7e26363cc/e66efc8d-cd55-4bd2-9d9f-393ca214529c"
      (reference "C33") (unit 1) (value "1uF") (footprint "Capacitor_SMD:C_0805_2012Metric")
    )
    (path "/dbf441f5-9619-4381-966d-84f7e26363cc/c2dce480-c7ef-420e-ba19-a1657a843cc2"
      (reference "C34") (unit 1) (value "4,7uF") (footprint "Capacitor_SMD:C_0805_2012Metric")
    )
    (path "/43e908e6-4e8c-4869-9321-75ec63d3be0e/14d6c50b-9245-4cd7-84b3-4916ae0a1698"
      (reference "C35") (unit 1) (value "0,1uF") (footprint "Capacitor_SMD:C_0805_2012Metric")
    )
    (path "/dbf441f5-9619-4381-966d-84f7e26363cc/4f7354e4-8c3c-49c7-aba9-8816133b75dd"
      (reference "C36") (unit 1) (value "4,7uF") (footprint "Capacitor_SMD:C_0805_2012Metric")
    )
    (path "/43e908e6-4e8c-4869-9321-75ec63d3be0e/db569b0a-216c-4121-bba5-f4e81dbcd73b"
      (reference "C37") (unit 1) (value "22uF") (footprint "Capacitor_SMD:C_0805_2012Metric")
    )
    (path "/dbf441f5-9619-4381-966d-84f7e26363cc/be0a13d1-3c0b-41df-86e0-10fc9843b066"
      (reference "C38") (unit 1) (value "0,1uF") (footprint "Capacitor_SMD:C_0805_2012Metric")
    )
    (path "/43e908e6-4e8c-4869-9321-75ec63d3be0e/75355b05-93d8-448d-8ea3-ac6e9b8a31c4"
      (reference "C39") (unit 1) (value "47pF") (footprint "Capacitor_SMD:C_0805_2012Metric")
    )
    (path "/43e908e6-4e8c-4869-9321-75ec63d3be0e/6f125a7d-e6c3-4153-9423-53dc23a056f9"
      (reference "C40") (unit 1) (value "NC") (footprint "Capacitor_SMD:C_0805_2012Metric")
    )
    (path "/43e908e6-4e8c-4869-9321-75ec63d3be0e/71ce0f6c-1bb5-4446-bbe6-b1ac700453b6"
      (reference "C41") (unit 1) (value "0,1uF") (footprint "Capacitor_SMD:C_0805_2012Metric")
    )
    (path "/43e908e6-4e8c-4869-9321-75ec63d3be0e/df357c42-e949-435e-b122-525f82c8d8f8"
      (reference "C42") (unit 1) (value "47pF") (footprint "Capacitor_SMD:C_0805_2012Metric")
    )
    (path "/43e908e6-4e8c-4869-9321-75ec63d3be0e/42f9c98d-6e57-4a5a-988f-f8d465cf6b55"
      (reference "C43") (unit 1) (value "0,1uF") (footprint "Capacitor_SMD:C_0805_2012Metric")
    )
    (path "/43e908e6-4e8c-4869-9321-75ec63d3be0e/f7864ea8-6fc4-4838-a0eb-b894d9695ce3"
      (reference "C44") (unit 1) (value "100pF") (footprint "Capacitor_SMD:C_0805_2012Metric")
    )
    (path "/43e908e6-4e8c-4869-9321-75ec63d3be0e/588d11e5-456e-425a-8783-f06e68cdb795"
      (reference "C45") (unit 1) (value "0,1uF") (footprint "Capacitor_SMD:C_0805_2012Metric")
    )
    (path "/43e908e6-4e8c-4869-9321-75ec63d3be0e/8859d7c2-629e-4d44-9db4-d041f7e8f1b8"
      (reference "C46") (unit 1) (value "1uF") (footprint "Capacitor_SMD:C_0805_2012Metric")
    )
    (path "/b5dbda8e-b91f-4df5-97b8-c00c7d77d0b4/106db72a-cf20-41ce-b171-2fe09897a64c"
      (reference "C47") (unit 1) (value "0,1uF") (footprint "Capacitor_SMD:C_0805_2012Metric")
    )
    (path "/b5dbda8e-b91f-4df5-97b8-c00c7d77d0b4/49ad618e-b732-4ed8-9947-ed681a220c60"
      (reference "C48") (unit 1) (value "22uF") (footprint "Capacitor_SMD:C_0805_2012Metric")
    )
    (path "/43e908e6-4e8c-4869-9321-75ec63d3be0e/4d6775e5-b932-4eb8-8e51-a7fd7ace11b8"
      (reference "C49") (unit 1) (value "4,7uF") (footprint "Capacitor_SMD:C_0805_2012Metric")
    )
    (path "/43e908e6-4e8c-4869-9321-75ec63d3be0e/02dc98cf-cd92-4ecc-9a44-8a374cfd5215"
      (reference "C50") (unit 1) (value "0,1uF") (footprint "Capacitor_SMD:C_0805_2012Metric")
    )
    (path "/43e908e6-4e8c-4869-9321-75ec63d3be0e/1775ebc1-ef2e-464f-ab13-7fcee902e265"
      (reference "C51") (unit 1) (value "22uF") (footprint "Capacitor_SMD:C_0805_2012Metric")
    )
    (path "/43e908e6-4e8c-4869-9321-75ec63d3be0e/66af9080-22f7-4093-b0d4-8a4b744c9eae"
      (reference "C52") (unit 1) (value "0,1uF") (footprint "Capacitor_SMD:C_0805_2012Metric")
    )
    (path "/43e908e6-4e8c-4869-9321-75ec63d3be0e/1e9044c0-446d-4daf-96f8-d106e2441d3c"
      (reference "C53") (unit 1) (value "0,1uF") (footprint "Capacitor_SMD:C_0805_2012Metric")
    )
    (path "/8defd7fa-4f3e-463e-80fe-a61c4cda154a/84a3f212-d523-4dc3-9adf-c7edc7299cea"
      (reference "D1") (unit 1) (value "WS2812B") (footprint "LED_SMD:LED_WS2812B_PLCC4_5.0x5.0mm_P3.2mm")
    )
    (path "/8defd7fa-4f3e-463e-80fe-a61c4cda154a/7656570e-867b-4b6d-b70f-eb88d30e6ee0"
      (reference "D2") (unit 1) (value "WS2812B") (footprint "LED_SMD:LED_WS2812B_PLCC4_5.0x5.0mm_P3.2mm")
    )
    (path "/8defd7fa-4f3e-463e-80fe-a61c4cda154a/ea483516-4820-43a6-9a84-96ab16c456d0"
      (reference "D3") (unit 1) (value "WS2812B") (footprint "LED_SMD:LED_WS2812B_PLCC4_5.0x5.0mm_P3.2mm")
    )
    (path "/8defd7fa-4f3e-463e-80fe-a61c4cda154a/75ceeb26-18a5-4360-b8ae-63937e72f4fd"
      (reference "D4") (unit 1) (value "WS2812B") (footprint "LED_SMD:LED_WS2812B_PLCC4_5.0x5.0mm_P3.2mm")
    )
    (path "/8defd7fa-4f3e-463e-80fe-a61c4cda154a/90ce14e9-2240-4d1b-8caa-7aa7f8bc9050"
      (reference "D5") (unit 1) (value "WS2812B") (footprint "LED_SMD:LED_WS2812B_PLCC4_5.0x5.0mm_P3.2mm")
    )
    (path "/8defd7fa-4f3e-463e-80fe-a61c4cda154a/aea75ec5-5279-4d47-ab09-573ae0a4819b"
      (reference "D6") (unit 1) (value "WS2812B") (footprint "LED_SMD:LED_WS2812B_PLCC4_5.0x5.0mm_P3.2mm")
    )
    (path "/8defd7fa-4f3e-463e-80fe-a61c4cda154a/c2bdf6ea-8542-4ba3-b0d2-2c59a192ab31"
      (reference "D7") (unit 1) (value "WS2812B") (footprint "LED_SMD:LED_WS2812B_PLCC4_5.0x5.0mm_P3.2mm")
    )
    (path "/8defd7fa-4f3e-463e-80fe-a61c4cda154a/d3d5b494-f655-4f44-9070-fd5c95655d11"
      (reference "D8") (unit 1) (value "WS2812B") (footprint "LED_SMD:LED_WS2812B_PLCC4_5.0x5.0mm_P3.2mm")
    )
    (path "/8defd7fa-4f3e-463e-80fe-a61c4cda154a/7ff684fb-0f57-4268-90ca-eb7a837149a2"
      (reference "D9") (unit 1) (value "WS2812B") (footprint "LED_SMD:LED_WS2812B_PLCC4_5.0x5.0mm_P3.2mm")
    )
    (path "/8defd7fa-4f3e-463e-80fe-a61c4cda154a/1ccd07af-d13a-4630-ad8f-5244ecaae5d5"
      (reference "D10") (unit 1) (value "WS2812B") (footprint "LED_SMD:LED_WS2812B_PLCC4_5.0x5.0mm_P3.2mm")
    )
    (path "/8defd7fa-4f3e-463e-80fe-a61c4cda154a/64cb01c0-ead3-4056-aa36-618fc478e38e"
      (reference "D11") (unit 1) (value "WS2812B") (footprint "LED_SMD:LED_WS2812B_PLCC4_5.0x5.0mm_P3.2mm")
    )
    (path "/8defd7fa-4f3e-463e-80fe-a61c4cda154a/079c0f14-ef71-4e76-8afd-a115b57f6bc0"
      (reference "D12") (unit 1) (value "WS2812B") (footprint "LED_SMD:LED_WS2812B_PLCC4_5.0x5.0mm_P3.2mm")
    )
    (path "/8defd7fa-4f3e-463e-80fe-a61c4cda154a/a08c6d62-434a-4f30-beb8-9a7d608612d3"
      (reference "D13") (unit 1) (value "WS2812B") (footprint "LED_SMD:LED_WS2812B_PLCC4_5.0x5.0mm_P3.2mm")
    )
    (path "/8defd7fa-4f3e-463e-80fe-a61c4cda154a/fb90a785-ea1c-434a-90a0-72353ceb100e"
      (reference "D14") (unit 1) (value "WS2812B") (footprint "LED_SMD:LED_WS2812B_PLCC4_5.0x5.0mm_P3.2mm")
    )
    (path "/8defd7fa-4f3e-463e-80fe-a61c4cda154a/3032df23-ac19-457b-bb8a-9671db500aea"
      (reference "D15") (unit 1) (value "WS2812B") (footprint "LED_SMD:LED_WS2812B_PLCC4_5.0x5.0mm_P3.2mm")
    )
    (path "/8defd7fa-4f3e-463e-80fe-a61c4cda154a/8319824d-9280-48c4-8b97-e3cf81505ee6"
      (reference "D16") (unit 1) (value "WS2812B") (footprint "LED_SMD:LED_WS2812B_PLCC4_5.0x5.0mm_P3.2mm")
    )
    (path "/dbf441f5-9619-4381-966d-84f7e26363cc/9e9fe0e7-e54c-4382-8a2f-fd7b6adda112"
      (reference "D17") (unit 1) (value "LED") (footprint "LED_SMD:LED_1206_3216Metric_ReverseMount_Hole1.8x2.4mm")
    )
    (path "/dbf441f5-9619-4381-966d-84f7e26363cc/034f2ee9-370e-4b39-8188-5cc4093e7b77"
      (reference "D18") (unit 1) (value "LED") (footprint "LED_SMD:LED_0805_2012Metric")
    )
    (path "/43e908e6-4e8c-4869-9321-75ec63d3be0e/3f581665-702b-4c86-9360-e979aa99ec26"
      (reference "D19") (unit 1) (value "D_Schottky") (footprint "Diode_SMD:D_SOD-123")
    )
    (path "/dbf441f5-9619-4381-966d-84f7e26363cc/52d8c38d-e505-4954-aa81-5f3b9ed75479"
      (reference "D20") (unit 1) (value "LED") (footprint "LED_SMD:LED_0805_2012Metric")
    )
    (path "/dbf441f5-9619-4381-966d-84f7e26363cc/a6362f17-bc36-4e48-8b2b-e18482c33563"
      (reference "D21") (unit 1) (value "LED") (footprint "LED_SMD:LED_0805_2012Metric")
    )
    (path "/43e908e6-4e8c-4869-9321-75ec63d3be0e/43922c26-0564-40c5-9dac-e0503ae6ac7e"
      (reference "D22") (unit 1) (value "LED") (footprint "LED_SMD:LED_0805_2012Metric")
    )
    (path "/43e908e6-4e8c-4869-9321-75ec63d3be0e/66eba09c-3c70-4973-b7a5-437db5ecaa54"
      (reference "D23") (unit 1) (value "IR17-21C") (footprint "LED_SMD:LED_1206_3216Metric")
    )
    (path "/b5dbda8e-b91f-4df5-97b8-c00c7d77d0b4/73b33d7d-c43b-41c1-a577-52cee3e38c9b"
      (reference "D24") (unit 1) (value "D_Schottky") (footprint "Diode_SMD:D_SOD-123")
    )
    (path "/43e908e6-4e8c-4869-9321-75ec63d3be0e/ce872523-2adf-4863-ba55-863d0cfeaf69"
      (reference "FB1") (unit 1) (value "742792042") (footprint "Inductor_SMD:L_0805_2012Metric")
    )
    (path "/1fc1f7a5-2a0c-44bb-8e36-dd6ae1a56c20"
      (reference "FID1") (unit 1) (value "Fiducial") (footprint "Fiducial:Fiducial_1mm_Mask2mm")
    )
    (path "/bd70800d-ea87-4cfb-8569-015a3335aba5"
      (reference "FID2") (unit 1) (value "Fiducial") (footprint "Fiducial:Fiducial_1mm_Mask2mm")
    )
    (path "/b47a41eb-6c33-4519-8949-2ee12b7853bf"
      (reference "FID3") (unit 1) (value "Fiducial") (footprint "Fiducial:Fiducial_1mm_Mask2mm")
    )
    (path "/2a32db63-6568-4eea-99df-577289ac6af5"
      (reference "FID4") (unit 1) (value "Fiducial") (footprint "Fiducial:Fiducial_1mm_Mask2mm")
    )
    (path "/49c41708-cb0c-4623-beb7-21c2df744a2c"
      (reference "FID5") (unit 1) (value "Fiducial") (footprint "Fiducial:Fiducial_1mm_Mask2mm")
    )
    (path "/5c31f714-e8b7-4de9-9b58-c39272c242d3"
      (reference "FID6") (unit 1) (value "Fiducial") (footprint "Fiducial:Fiducial_1mm_Mask2mm")
    )
    (path "/f39cb093-e78b-439b-8ee1-88516a6865b4"
      (reference "FID7") (unit 1) (value "Fiducial") (footprint "Fiducial:Fiducial_1mm_Mask2mm")
    )
    (path "/fa4f511f-d34c-4560-a5ca-cf4a662997e0"
      (reference "FID8") (unit 1) (value "Fiducial") (footprint "Fiducial:Fiducial_1mm_Mask2mm")
    )
    (path "/18ffde45-036c-4842-92c6-d70a13c0dfff"
      (reference "H1") (unit 1) (value "MountingHole") (footprint "MountingHole:MountingHole_3.2mm_M3")
    )
    (path "/06808af2-7e1b-4538-be58-de3841b1fdf3"
      (reference "H2") (unit 1) (value "MountingHole") (footprint "MountingHole:MountingHole_3.2mm_M3")
    )
    (path "/5bde0b14-1aea-422c-b1a3-572e2958a735"
      (reference "H3") (unit 1) (value "MountingHole") (footprint "MountingHole:MountingHole_3.2mm_M3")
    )
    (path "/1a665eb9-9787-4c57-8c96-b9f0ca0e3ebb"
      (reference "H4") (unit 1) (value "MountingHole") (footprint "MountingHole:MountingHole_3.2mm_M3")
    )
    (path "/43e908e6-4e8c-4869-9321-75ec63d3be0e/be3ae838-34c1-4505-837b-a630b68b6bde"
      (reference "IC1") (unit 1) (value "IRM-H6xxT") (footprint "Mondev:IRM-H6XXT")
    )
    (path "/43e908e6-4e8c-4869-9321-75ec63d3be0e/6da754db-e4c6-4fbe-8e43-8847cc322bf2"
      (reference "J3") (unit 1) (value "Conn_02x03") (footprint "Mondev:Badgelife-SAO-169")
    )
    (path "/43e908e6-4e8c-4869-9321-75ec63d3be0e/42ac1f94-424d-482e-90f9-b14062351371"
      (reference "J4") (unit 1) (value "Conn_02x03") (footprint "Mondev:Badgelife-SAO-169")
    )
    (path "/b5dbda8e-b91f-4df5-97b8-c00c7d77d0b4/0ce88377-4fe0-473a-ba1a-bc5c11b7bacf"
      (reference "J5") (unit 1) (value "Conn_ARM_JTAG_SWD_10") (footprint "Connector:Tag-Connect_TC2050-IDC-NL_2x05_P1.27mm_Vertical")
    )
    (path "/b5dbda8e-b91f-4df5-97b8-c00c7d77d0b4/cb015470-c4f9-48ea-9334-8aa6ea234423"
      (reference "J6") (unit 1) (value "USB_C_Receptacle_USB2.0") (footprint "Connector_USB:USB_C_Receptacle_HRO_TYPE-C-31-M-12")
    )
    (path "/43e908e6-4e8c-4869-9321-75ec63d3be0e/4c8f85b7-738f-47cd-a8f5-b5d7783c6b06"
      (reference "J7") (unit 1) (value "Conn_01x22") (footprint "Connector_FFC-FPC:TE_2-1734839-2_1x22-1MP_P0.5mm_Horizontal")
    )
    (path "/43e908e6-4e8c-4869-9321-75ec63d3be0e/aa2adc24-3320-464b-a404-ad7726ef0e42"
      (reference "J8") (unit 1) (value "Conn_01x39") (footprint "Connector_FFC-FPC:TE_3-1734839-9_1x39-1MP_P0.5mm_Horizontal")
    )
    (path "/0e9135c0-b4e1-4178-a116-e80ca62d2183/b8a18752-bc6a-4596-8a31-7c53ab210422"
      (reference "JP1") (unit 1) (value "SJumper") (footprint "Jumper:SolderJumper-3_P1.3mm_Open_RoundedPad1.0x1.5mm")
    )
    (path "/dbf441f5-9619-4381-966d-84f7e26363cc/5f934e2f-d9d6-452b-9cf1-1ce5840ad050"
      (reference "JP3") (unit 1) (value "SolderJumper") (footprint "Jumper:SolderJumper-2_P1.3mm_Bridged_RoundedPad1.0x1.5mm")
    )
    (path "/0e9135c0-b4e1-4178-a116-e80ca62d2183/e9796548-f78f-42f5-a673-f49afb54781f"
      (reference "L1") (unit 1) (value "2nH") (footprint "Inductor_SMD:L_0603_1608Metric")
    )
    (path "/43e908e6-4e8c-4869-9321-75ec63d3be0e/0a6bbfad-cf07-4edf-b2a3-c31df77846aa"
      (reference "L2") (unit 1) (value "22uH") (footprint "Inductor_SMD:L_Taiyo-Yuden_MD-4040")
    )
    (path "/43e908e6-4e8c-4869-9321-75ec63d3be0e/62dd5bd7-b917-41c5-a3bb-31226a02673d"
      (reference "MK1") (unit 1) (value "SPH0641LU4H-1") (footprint "Sensor_Audio:Knowles_LGA-5_3.5x2.65mm")
    )
    (path "/dbf441f5-9619-4381-966d-84f7e26363cc/fefae8fe-a13f-4a48-9737-2ebd8f28b404"
      (reference "Q1") (unit 1) (value "DMP3056L-7") (footprint "Package_TO_SOT_SMD:SOT-23")
    )
    (path "/43e908e6-4e8c-4869-9321-75ec63d3be0e/00cf5cd6-6352-4ecd-9e35-417d88e8c660"
      (reference "Q2") (unit 1) (value "BC847") (footprint "Package_TO_SOT_SMD:SOT-23")
    )
    (path "/0e9135c0-b4e1-4178-a116-e80ca62d2183/17a9527e-f298-4214-9875-52371c7337b4"
      (reference "R1") (unit 1) (value "10K") (footprint "Resistor_SMD:R_0805_2012Metric")
    )
    (path "/43e908e6-4e8c-4869-9321-75ec63d3be0e/cfa2d146-7b06-48d5-94bb-71470ad86b1a"
      (reference "R2") (unit 1) (value "100") (footprint "Resistor_SMD:R_0805_2012Metric")
    )
    (path "/43e908e6-4e8c-4869-9321-75ec63d3be0e/ed7de839-e129-414f-8e14-71fdbe125c91"
      (reference "R3") (unit 1) (value "10K") (footprint "Resistor_SMD:R_0805_2012Metric")
    )
    (path "/dbf441f5-9619-4381-966d-84f7e26363cc/819ccaae-fca3-48c7-be96-e8258bab9c8c"
      (reference "R4") (unit 1) (value "4K7") (footprint "Resistor_SMD:R_0805_2012Metric")
    )
    (path "/dbf441f5-9619-4381-966d-84f7e26363cc/3b23b1bb-4037-44f3-8936-e2ed0292f4c6"
      (reference "R5") (unit 1) (value "10K") (footprint "Resistor_SMD:R_0805_2012Metric")
    )
    (path "/dbf441f5-9619-4381-966d-84f7e26363cc/95da6862-d051-4e1d-b81c-75babc447219"
      (reference "R6") (unit 1) (value "5K6") (footprint "Resistor_SMD:R_0805_2012Metric")
    )
    (path "/dbf441f5-9619-4381-966d-84f7e26363cc/8f75e9da-f1ca-471d-bf34-f0d6cd650587"
      (reference "R7") (unit 1) (value "10K") (footprint "Resistor_SMD:R_0805_2012Metric")
    )
    (path "/dbf441f5-9619-4381-966d-84f7e26363cc/b99fd12d-af23-4635-b801-50a580e4840c"
      (reference "R8") (unit 1) (value "6K8") (footprint "Resistor_SMD:R_0805_2012Metric")
    )
    (path "/43e908e6-4e8c-4869-9321-75ec63d3be0e/357ccba1-2726-4c31-980c-cfd00a45b332"
      (reference "R9") (unit 1) (value "4,7") (footprint "Resistor_SMD:R_0805_2012Metric")
    )
    (path "/dbf441f5-9619-4381-966d-84f7e26363cc/7ae6fe29-5ceb-40c9-a9d2-a20b7856a8fd"
      (reference "R10") (unit 1) (value "5K6") (footprint "Resistor_SMD:R_0805_2012Metric")
    )
    (path "/dbf441f5-9619-4381-966d-84f7e26363cc/c6d95d12-cb32-4b41-ab2d-700bad231688"
      (reference "R11") (unit 1) (value "3K9") (footprint "Resistor_SMD:R_0805_2012Metric")
    )
    (path "/dbf441f5-9619-4381-966d-84f7e26363cc/fb838a7b-0abb-4e91-afb2-672bc10222ff"
      (reference "R12") (unit 1) (value "4K7") (footprint "Resistor_SMD:R_0805_2012Metric")
    )
    (path "/43e908e6-4e8c-4869-9321-75ec63d3be0e/0ffd279a-ed65-4fa2-8bc0-234438b49bff"
      (reference "R13") (unit 1) (value "10K") (footprint "Resistor_SMD:R_0805_2012Metric")
    )
    (path "/43e908e6-4e8c-4869-9321-75ec63d3be0e/70a3b15f-4b97-4d8c-9712-f262cb281fb7"
      (reference "R14") (unit 1) (value "4K7") (footprint "Resistor_SMD:R_0805_2012Metric")
    )
    (path "/43e908e6-4e8c-4869-9321-75ec63d3be0e/0155590d-6824-411a-ada8-493befa88adf"
      (reference "R15") (unit 1) (value "4K7") (footprint "Resistor_SMD:R_0805_2012Metric")
    )
    (path "/43e908e6-4e8c-4869-9321-75ec63d3be0e/d2988328-5c6a-4b73-95f1-127c91ec2080"
      (reference "R16") (unit 1) (value "5K6") (footprint "Resistor_SMD:R_0805_2012Metric")
    )
    (path "/43e908e6-4e8c-4869-9321-75ec63d3be0e/91f23bfc-d472-45f6-b5a5-12ad5da9e005"
      (reference "R17") (unit 1) (value "10K") (footprint "Resistor_SMD:R_0805_2012Metric")
    )
    (path "/43e908e6-4e8c-4869-9321-75ec63d3be0e/ab105b72-dae2-4873-8bca-005a9515cb0b"
      (reference "R18") (unit 1) (value "10K") (footprint "Resistor_SMD:R_0805_2012Metric")
    )
    (path "/43e908e6-4e8c-4869-9321-75ec63d3be0e/3a5d0e61-04c7-4e1c-915f-1df44d121762"
      (reference "R19") (unit 1) (value "47") (footprint "Resistor_SMD:R_0805_2012Metric")
    )
    (path "/43e908e6-4e8c-4869-9321-75ec63d3be0e/7af8f4cc-d503-4a0e-affc-ba69e92799e0"
      (reference "R20") (unit 1) (value "47") (footprint "Resistor_SMD:R_0805_2012Metric")
    )
    (path "/b5dbda8e-b91f-4df5-97b8-c00c7d77d0b4/d5c7c2cc-3769-46c4-8c2c-ab63aade9930"
      (reference "R21") (unit 1) (value "100") (footprint "Resistor_SMD:R_0805_2012Metric")
    )
    (path "/b5dbda8e-b91f-4df5-97b8-c00c7d77d0b4/ed46d34f-dbf7-4184-a2a3-9342b6c97f04"
      (reference "R22") (unit 1) (value "100K") (footprint "Resistor_SMD:R_0805_2012Metric")
    )
    (path "/b5dbda8e-b91f-4df5-97b8-c00c7d77d0b4/a2f010b5-e139-4503-bcba-9ba025e7f98d"
      (reference "R23") (unit 1) (value "330") (footprint "Resistor_SMD:R_0805_2012Metric")
    )
    (path "/b5dbda8e-b91f-4df5-97b8-c00c7d77d0b4/885476f3-6bb7-46e6-97c2-6807afd92b55"
      (reference "R24") (unit 1) (value "5K1") (footprint "Resistor_SMD:R_0805_2012Metric")
    )
    (path "/b5dbda8e-b91f-4df5-97b8-c00c7d77d0b4/c61046fa-7786-4e60-b0ff-640d7ab2aa1c"
      (reference "R25") (unit 1) (value "5K1") (footprint "Resistor_SMD:R_0805_2012Metric")
    )
    (path "/43e908e6-4e8c-4869-9321-75ec63d3be0e/73ae83a5-020a-4327-b90d-29cc0aab6a77"
      (reference "R26") (unit 1) (value "10K") (footprint "Resistor_SMD:R_0805_2012Metric")
    )
    (path "/43e908e6-4e8c-4869-9321-75ec63d3be0e/3791ed81-c8cb-4efa-8813-d7c26c400bfb"
      (reference "R27") (unit 1) (value "10K") (footprint "Resistor_SMD:R_0805_2012Metric")
    )
    (path "/43e908e6-4e8c-4869-9321-75ec63d3be0e/de5b4e9c-80f8-4ea3-8cd9-c0331e32786f"
      (reference "R28") (unit 1) (value "2K2") (footprint "Resistor_SMD:R_0805_2012Metric")
    )
    (path "/0e9135c0-b4e1-4178-a116-e80ca62d2183/ef3f9a6c-5c26-44de-b327-16d2f910738a"
      (reference "R29") (unit 1) (value "0") (footprint "Resistor_SMD:R_0603_1608Metric")
    )
    (path "/43e908e6-4e8c-4869-9321-75ec63d3be0e/ad0fa992-12b3-49b3-abbe-43e6445499af"
      (reference "R30") (unit 1) (value "39K2") (footprint "Resistor_SMD:R_0805_2012Metric")
    )
    (path "/43e908e6-4e8c-4869-9321-75ec63d3be0e/b90e7d14-8992-4bc1-b060-a4a4b0c1a65a"
      (reference "R31") (unit 1) (value "2K") (footprint "Resistor_SMD:R_0805_2012Metric")
    )
    (path "/43e908e6-4e8c-4869-9321-75ec63d3be0e/628dbdb4-2659-40d6-bd68-8d7bb8317e94"
      (reference "SF1") (unit 1) (value "Soldfeld") (footprint "Mondev:SolderlittleArea_8")
    )
    (path "/43e908e6-4e8c-4869-9321-75ec63d3be0e/4ff3cc97-1fab-493a-9c3d-fd784825ca6f"
      (reference "SW1") (unit 1) (value "SPST-Grau") (footprint "Button_Switch_SMD:SW_SPST_PTS645")
    )
    (path "/43e908e6-4e8c-4869-9321-75ec63d3be0e/45113238-d923-4243-9de4-4489f12b8c0e"
      (reference "SW2") (unit 1) (value "SPST-Red") (footprint "Button_Switch_SMD:SW_SPST_PTS645")
    )
    (path "/43e908e6-4e8c-4869-9321-75ec63d3be0e/ed2cd8e8-ad78-4dfa-b9ed-926a0a1cbfea"
      (reference "SW3") (unit 1) (value "SPST-Noire") (footprint "Button_Switch_SMD:SW_SPST_PTS645")
    )
    (path "/43e908e6-4e8c-4869-9321-75ec63d3be0e/32516c11-1f0f-450e-b4d3-7a4c745ed2d5"
      (reference "SW4") (unit 1) (value "SPST-Noire") (footprint "Button_Switch_SMD:SW_SPST_PTS645")
    )
    (path "/0e9135c0-b4e1-4178-a116-e80ca62d2183/24b0d7cd-c221-4869-a0c4-8429176ff40c"
      (reference "SW5") (unit 1) (value "SPST-Bleu") (footprint "Button_Switch_SMD:SW_SPST_PTS810")
    )
    (path "/dbf441f5-9619-4381-966d-84f7e26363cc/642415b1-ff89-4f52-abd9-510dc4108df0"
      (reference "SW6") (unit 1) (value "SW_SPDT") (footprint "Mondev:SW_SPDT_CK-JS102011SCQN")
    )
    (path "/43e908e6-4e8c-4869-9321-75ec63d3be0e/25a1a8f3-5d12-442d-8784-1dc5b37877d8"
      (reference "TP1") (unit 1) (value "TestPoint") (footprint "TestPoint:TestPoint_Pad_2.0x2.0mm")
    )
    (path "/0e9135c0-b4e1-4178-a116-e80ca62d2183/cce26288-7864-4941-938e-7207c53a1b16"
      (reference "TP2") (unit 1) (value "TestPoint") (footprint "TestPoint:TestPoint_Pad_D2.0mm")
    )
    (path "/0e9135c0-b4e1-4178-a116-e80ca62d2183/d568b090-6df1-4518-9247-5b25ab8b4cce"
      (reference "TP3") (unit 1) (value "TestPoint") (footprint "TestPoint:TestPoint_Pad_D2.0mm")
    )
    (path "/0e9135c0-b4e1-4178-a116-e80ca62d2183/c9cd82f8-9a74-4b50-81c0-8f4e63b3b569"
      (reference "TP4") (unit 1) (value "TestPoint") (footprint "TestPoint:TestPoint_Pad_D2.0mm")
    )
    (path "/0e9135c0-b4e1-4178-a116-e80ca62d2183/fcffbb16-f0d4-4ba1-8d08-9171985969b8"
      (reference "TP5") (unit 1) (value "TestPoint") (footprint "TestPoint:TestPoint_Pad_D2.0mm")
    )
    (path "/dbf441f5-9619-4381-966d-84f7e26363cc/41d2c036-0133-4858-af37-ae05a7f175e8"
      (reference "TP6") (unit 1) (value "Test") (footprint "TestPoint:TestPoint_THTPad_2.0x2.0mm_Drill1.0mm")
    )
    (path "/dbf441f5-9619-4381-966d-84f7e26363cc/866f8f9e-bfdb-42c2-975c-5cb163ae674b"
      (reference "TP7") (unit 1) (value "Test") (footprint "TestPoint:TestPoint_THTPad_2.0x2.0mm_Drill1.0mm")
    )
    (path "/43e908e6-4e8c-4869-9321-75ec63d3be0e/7df28e68-dc0c-40d4-aa22-2470ad435393"
      (reference "TP11") (unit 1) (value "TestPoint") (footprint "TestPoint:TestPoint_Pad_2.0x2.0mm")
    )
    (path "/43e908e6-4e8c-4869-9321-75ec63d3be0e/48b97031-cf04-41b8-bc3b-3f60de1f15af"
      (reference "TP12") (unit 1) (value "TestPoint") (footprint "TestPoint:TestPoint_Pad_2.0x2.0mm")
    )
    (path "/43e908e6-4e8c-4869-9321-75ec63d3be0e/67fb62af-7767-49f3-a78f-da9e2a5d8d2d"
      (reference "TP13") (unit 1) (value "TestPoint") (footprint "TestPoint:TestPoint_Pad_2.0x2.0mm")
    )
    (path "/43e908e6-4e8c-4869-9321-75ec63d3be0e/3d7af008-7766-49d5-bb51-43cf343ed73f"
      (reference "TP14") (unit 1) (value "TestPoint") (footprint "TestPoint:TestPoint_Pad_2.0x2.0mm")
    )
    (path "/43e908e6-4e8c-4869-9321-75ec63d3be0e/651150bd-5cb9-45fd-93ae-1ffe5f2f25d3"
      (reference "TP15") (unit 1) (value "Test") (footprint "TestPoint:TestPoint_Pad_D2.0mm")
    )
    (path "/dbf441f5-9619-4381-966d-84f7e26363cc/7b87e4ee-330e-42b7-95ad-1e6572a66b8c"
      (reference "TP16") (unit 1) (value "TestPoint") (footprint "Mondev:TestPoint_Keystone_5190")
    )
    (path "/dbf441f5-9619-4381-966d-84f7e26363cc/62220009-ebc0-487b-a39a-6899aa200447"
      (reference "TP17") (unit 1) (value "TestPoint") (footprint "Mondev:TestPoint_Keystone_5190")
    )
    (path "/dbf441f5-9619-4381-966d-84f7e26363cc/3e697d9b-513a-47c1-a916-30093054018b"
      (reference "TP18") (unit 1) (value "TestPoint") (footprint "Mondev:TestPoint_Keystone_5190")
    )
    (path "/dbf441f5-9619-4381-966d-84f7e26363cc/facca8d4-baa0-455b-b9ba-fa83fa9ffc65"
      (reference "TP19") (unit 1) (value "TestPoint") (footprint "Mondev:TestPoint_Keystone_5190")
    )
    (path "/0e9135c0-b4e1-4178-a116-e80ca62d2183/a15c7df4-92e0-49df-92c8-9227cd6c33a8"
      (reference "U1") (unit 1) (value "ESP32-C3") (footprint "Package_DFN_QFN:QFN-32-1EP_5x5mm_P0.5mm_EP3.45x3.45mm_ThermalVias")
    )
    (path "/dbf441f5-9619-4381-966d-84f7e26363cc/05d6ccc2-421b-4e9d-91cd-1ea66144224c"
      (reference "U2") (unit 1) (value "AP2112K-3.3") (footprint "Package_TO_SOT_SMD:SOT-23-5")
    )
    (path "/dbf441f5-9619-4381-966d-84f7e26363cc/cd01f0b8-75f0-4819-a2e8-e21fc775cda6"
      (reference "U3") (unit 1) (value "MCP73871") (footprint "Package_DFN_QFN:QFN-20-1EP_4x4mm_P0.5mm_EP2.5x2.5mm")
    )
    (path "/dbf441f5-9619-4381-966d-84f7e26363cc/83a1fbb8-99af-41ce-adf3-feab363ec2b5"
      (reference "U4") (unit 1) (value "MAX17048") (footprint "Package_DFN_QFN:DFN-8-1EP_2x2mm_P0.5mm_EP0.7x1.3mm")
    )
    (path "/0e9135c0-b4e1-4178-a116-e80ca62d2183/c36ca0cb-76a9-491e-b0ab-fd3df622ad4c"
      (reference "U5") (unit 1) (value "74LVC1G17") (footprint "Package_TO_SOT_SMD:SOT-23-5")
    )
    (path "/43e908e6-4e8c-4869-9321-75ec63d3be0e/d3a8ac51-5c76-4688-b8bf-7bd31b620b46"
      (reference "U6") (unit 1) (value "ST25DV04K-JF") (footprint "Package_DFN_QFN:DFN-8-1EP_3x2mm_P0.5mm_EP1.3x1.5mm")
    )
    (path "/43e908e6-4e8c-4869-9321-75ec63d3be0e/ff404d94-c427-4b5c-9a67-c7de5d2fe8a6"
      (reference "U7") (unit 1) (value "Sensirion_SGP30") (footprint "Mondev:Sensirion_SGP30")
    )
    (path "/43e908e6-4e8c-4869-9321-75ec63d3be0e/070b0340-976b-4974-ba01-f7973267eaea"
      (reference "U8") (unit 1) (value "93CxxC") (footprint "Package_DFN_QFN:DFN-8-1EP_3x2mm_P0.5mm_EP1.3x1.5mm")
    )
    (path "/43e908e6-4e8c-4869-9321-75ec63d3be0e/43bda124-db2d-4a75-8af4-8cb927c9415c"
      (reference "U9") (unit 1) (value "PCF8574") (footprint "Package_DFN_QFN:VQFN-16-1EP_3x3mm_P0.5mm_EP1.6x1.6mm")
    )
    (path "/43e908e6-4e8c-4869-9321-75ec63d3be0e/686d22ae-12e5-45ff-bd45-d8b4469aae54"
      (reference "U10") (unit 1) (value "MT3608") (footprint "Package_TO_SOT_SMD:SOT-23-6")
    )
    (path "/43e908e6-4e8c-4869-9321-75ec63d3be0e/d7764635-58fb-46ec-b859-3262d065eb36"
      (reference "U11") (unit 1) (value "ATECC608B") (footprint "Package_DFN_QFN:DFN-8-1EP_3x2mm_P0.5mm_EP1.3x1.5mm")
    )
    (path "/0e9135c0-b4e1-4178-a116-e80ca62d2183/33b518d6-16e6-4d0f-98d7-80ec7ddf2ab2"
      (reference "Y1") (unit 1) (value "Crystal_GND24") (footprint "Crystal:Crystal_SMD_3225-4Pin_3.2x2.5mm")
    )
    (path "/0e9135c0-b4e1-4178-a116-e80ca62d2183/5d97d343-a678-4389-bc26-5f1bbdcd8d50"
      (reference "Y2") (unit 1) (value "Crystal") (footprint "Crystal:Crystal_SMD_3215-2Pin_3.2x1.5mm")
    )
  )
)
